"fajnev","magyarnev"
"Leucobryum glaucum","Fehérlő vánkosmoha"
"Asterella saccata","Zsákos zacskósmoha"
"Cephalozia lacinulata","Lapos májmoha"
"Frullania inflata","Hólyagos kerekesféreglakta-májmoha"
"Jungermannia subulata","Jungermann-moha"
"Lophozia ascendens","Felálló hegyesmájmoha"
"Mannia triandra","Sziklai illatosmoha"
"Riccia frostii","Frost-úszómájmoha"
"Riccia huebeneriana","Hübener-úszómájmoha"
"Aloina bifron","Felállótokú aloémoha"
"Amblystegium saxatile","Sziklai karcsútokú moha"
"Anacamptodon splachnoides","Ernyőmohaszerű görbefogúmoha"
"Anomodon rostratus","Csőrös farkaslábmoha"
"Brachydontium trichodes","Szőrszerű pintycsőrűmoha"
"Brachythecium oxycladum","Hegyeságú pintycsőrűmoha"
"Brachythecium geheebii","Geheeb pintycsőrűmoha"
"Bryum elegans","Keskenyfogú körtemoha"
"Bryum neodamense","Kanalaslevelű törpemoha"
"Bryum versicolor","Tarka körtemoha"
"Bryum warneum","Ostoros körtemoha"
"Buxbaumia viridis","Zöld koboldmoha"
"Calliergon giganteum","Óriásmoha"
"Calliergon stramineum","Gyökerecskés-levélcsúcsú moha"
"Campylium elodes","Mocsári aranymoha"
"Campylostelium saxicola","Karcsú aranymoha"
"Desmatodon cernuus","Bókoló trágyamoha"
"Dicranella humilis","Kis seprőcskemoha"
"Dicranum viride","Zöld seprőmoha"
"Didymodon glaucus","Szürke ikresmoha"
"Drepanocladus exannulatus","Gyűretlen sarlósmoha"
"Drepanocladus lycopodioides","Korpafűszerű sarlósmoha"
"Drepanocladus revolvens","Körkörös sarlósmoha"
"Drepanocladus sendtneri","Sendtner-sarlósmoha"
"Entosthodon hungaricus","Sóspusztai magyarmoha"
"Ephemerum cohaerens","Csportos paránymoha"
"Ephemerum recurvifolium","Sarlóslevelű paránymoha"
"Fissidens curvatus","Algarvei-hasadtfogúmoha"
"Fissidens arnoldii","Arnoldi-hasadtfogúmoha"
"Fissidens bryoides","Kis hasadtfogúmoha"
"Grimmia plagiopodia","Hasastokú párnácskamoha"
"Grimmia teretinervis","Vastagerű párnácskamoha"
"Hamatocaulis vernicosus","Karcsú aranymoha"
"Hilpertia velenovskyi","Velenonsky-löszmoha"
"Meesia triquetra","Háromélű moha"
"Neckera pennata","Tollas függönymoha"
"Orthotrichum rogeri","Alhavasi szőrössüvegűmoha"
"Orthotrichum scanicum","Halványzöld szőrössüvegűmoha"
"Orthotrichum stellatum","Csillagos szőrössüvegűmoha"
"Phascum floerkeanum","Vörösbarna rügymoha"
"Physcomitrium sphaericum","Gömbös körtikemoha"
"Pterygoneurum lamellatum","Lemezes szárnyaserűmoha"
"Pyramidula tetragona","Négysarkú piramismoha"
"Rhynchostegiella jacquinii","Mattzöld kiscsőrűmoha"
"Rhynchostegium rotundifolium","Kereklevelű hosszúcsőrűmoha"
"Scorpidium scorpioides","Skorpiómoha"
"Sphagnum auriculatum","Fülecskés tőzegmoha"
"Sphagnum capillifolium","Félgömbfejű tőzegmoha"
"Sphagnum centrale","Sárgásbarna tőzegmoha"
"Sphagnum compactum","Tömöttágú tőzegmoha"
"Sphagnum contortum","Csavart tőzegmoha"
"Sphagnum cuspidatum","Keskenylevelű tőzegmoha"
"Sphagnum fimbriatum","Rojtos tőzegmoha"
"Sphagnum girgensohnii","Girgensohn-tőzegmoha"
"Sphagnum magellanicum","Magellán-tőzegmoha"
"Sphagnum obtusum","Tompalevelű tőzegmoha"
"Sphagnum palustre","Csónakos tőzegmoha"
"Sphagnum platyphyllum","Lágy tőzegmoha"
"Sphagnum quinquefarium","Ötlevélsoros tőzegmoha"
"Sphagnum recurvum","Karcsú tőzegmoha"
"Sphagnum russowii","Óriás tőzegmoha"
"Sphagnum squarrosum","Berzedt tőzegmoha"
"Sphagnum subnitens","Halványbarna tőzegmoha"
"Sphagnum subsecundum","Zászlós tőzegmoha"
"Sphagnum teres","Láperdei tőzegmoha"
"Sphagnum warnstorfii","Warnstorf-tőzegmoha"
"Taxiphyllum densifolium","Sűrűleveles kaukázusimoha"
"Tortula brevissima","Törpelöszmoha"
"Weissia rostellata","Kiscsőrű gyöngymoha"
