"fajnev","magyarnev","magyarnev","magyarnev","magyarnev","magyarnev","magyarnev"
"Abortiporus biennis","rőt likacsosgomba",,,,,
"Achroomyces disciformis","hársfa-fülgomba",,,,,
"Agaricus aestivalis",,,,,,
"Agaricus altipes",,,,,,
"Agaricus arvensis","erdőszéli csiperke",,,,,
"Agaricus augustus","óriás csiperke",,,,,
"Agaricus augustus","okkerpikkelyes csiperke",,,,,
"Agaricus babosi","Babos-csiperke",,,,,
"Agaricus benesii","ligeti csiperke",,,,,
"Agaricus bernardii","sziki csiperke",,,,,
"Agaricus bernardii","halszagú csiperke",,,,,
"Agaricus bernardiiformis",,,,,,
"Agaricus bisporus","kétspórás csiperke",,,,,
"Agaricus bisporus","termesztett csiperke",,,,,
"Agaricus bitorquis","ízletes csiperke",,,,,
"Agaricus bohusii","csoportos csiperke",,,,,
"Agaricus bresadolianus","akáccsiperke",,,,,
"Agaricus bresadolianus","akác-csiperke",,,,,
"Agaricus bresadolianus","gyökeres csiperke",,,,,
"Agaricus campestris","mezei csiperke",,,,,
"Agaricus campestris","kerti csiperke",,,,,
"Agaricus cappellianus",,,,,,
"Agaricus cappellii","bolyhos csiperke",,,,,
"Agaricus chionoderma",,,,,,
"Agaricus comtulus","kis csiperke",,,,,
"Agaricus cupreobrunneus","rézbarna csiperke",,,,,
"Agaricus cupreobrunneus","bíborbarna csiperke",,,,,
"Agaricus depauperatus",,,,,,
"Agaricus devoniensis",,,,,,
"Agaricus deylii",,,,,,
"Agaricus dulcidulus","apró csiperke",,,,,
"Agaricus dulcidulus","édeskés csiperke",,,,,
"Agaricus dulcidulus","törpe csiperke",,,,,
"Agaricus essettei","gumós csiperke",,,,,
"Agaricus excellens",,,,,,
"Agaricus fissuratus","repedezettkalapú csiperke",,,,,
"Agaricus fuscofibrillosus",,,,,,
"Agaricus gennadii","bocskoros csiperke",,,,,
"Agaricus haemorrhoidarius",,,,,,
"Agaricus impudicus","büdös csiperke",,,,,
"Agaricus impudicus","nehézszagú csiperke",,,,,
"Agaricus langei","kárminhúsú csiperke",,,,,
"Agaricus langei","hegyi csiperke",,,,,
"Agaricus lanipes","szélespikkelyű csiperke",,,,,
"Agaricus lanipes","pelyhestönkű csiperke",,,,,
"Agaricus leucotrichus",,,,,,
"Agaricus luteomaculatus",,,,,,
"Agaricus lutosus",,,,,,
"Agaricus macrocarpus","termetes csiperke",,,,,
"Agaricus macrosporoides",,,,,,
"Agaricus macrosporus",,,,,,
"Agaricus maskae",,,,,,
"Agaricus mediofuscus",,,,,,
"Agaricus moellerianus","tintaszagú csiperke",,,,,
"Agaricus niveolutescens",,,,,,
"Agaricus nivescens",,,,,,
"Agaricus pampeanus","pusztai csiperke",,,,,
"Agaricus pequinii","nagybocskoros csiperke",,,,,
"Agaricus pequinii","bocskoros csiperke",,,,,
"Agaricus phaeolepidotus","barnapikkelyű csiperke",,,,,
"Agaricus pilatianus",,,,,,
"Agaricus porphyrizon",,,,,,
"Agaricus porphyrocephalus","bíborbarna csiperke",,,,,
"Agaricus praeclaresquamosus",,,,,,
"Agaricus pseudopratensis","homoki csiperke",,,,,
"Agaricus purpurellus",,,,,,
"Agaricus radicatus",,,,,,
"Agaricus romagnesii",,,,,,
"Agaricus rusiophyllus",,,,,,
"Agaricus semotus",,,,,,
"Agaricus silvaticus",,,,,,
"Agaricus silvicola",,,,,,
"Agaricus silvicolae-similis",,,,,,
"Agaricus spissicaulis",,,,,,
"Agaricus squamulifer",,,,,,
"Agaricus subfloccosus","pelyhes csiperke",,,,,
"Agaricus subperonatus","komposztcsiperke","öves csiperke",,,,
"Agaricus vaporarius",,,,,,
"Agaricus xanthoderma","karbolszagú csiperke","okkeresedő csiperke","sárguló csiperke",,,
"Agaricus xantholepis",,,,,,
"Agrocybe arvalis","gumós rétgomba",,,,,
"Agrocybe cylindracea",,,,,,
"Agrocybe dura","kerti rétgomba",,,,,
"Agrocybe erebia",,,,,,
"Agrocybe paludosa",,,,,,
"Agrocybe praecox","tavaszi rétgomba","tavaszi tőkegomba",,,,
"Agrocybe pusilla",,,,,,
"Agrocybe semiorbicularis",,,,,,
"Agrocybe sphaleromorpha",,,,,,
"Agrocybe vervacti","üregestönkű rétgomba",,,,,
"Aleuria aurantia","narancsszínű csészegomba","narancsvörös csészegomba",,,,
"Alnicola alnetorum",,,,,,
"Alnicola amarescens",,,,,,
"Alnicola melinoides",,,,,,
"Alnicola paludosa",,,,,,
"Amanita alba",,,,,,
"Amanita beckeri","mogyoróbarna galóca",,,,,
"Amanita caesarea","császárgalóca","császárgomba",,,,
"Amanita ceciliae","óriás selyemgomba",,,,,
"Amanita citrina","citromgalóca",,,,,
"Amanita crocea","narancsszínű selyemgomba","narancssárga selyemgomba","narancsselymes galóca",,,
"Amanita eliae","fésűsperemű galóca",,,,,
"Amanita excelsa","szürke galóca",,,,,
"Amanita franchetii","érdes galóca",,,,,
"Amanita friabilis","éger-galóca","égergalóca",,,,
"Amanita fulva","rőt selyemgomba",,,,,
"Amanita gemmata","sárga galóca",,,,,
"Amanita lepiotoides","húsbarna galóca",,,,,
"Amanita lividopallescens","fakó selyemgomba","fakóselymes galóca",,,,
"Amanita magnivolvata","nagybocskorú selyemgomba","nagybocskorú galóca",,,,
"Amanita mairei","ezüstfehér selyemgomba","ezüstselymes galóca",,,,
"Amanita muscaria","légyölő galóca",,,,,
"Amanita ovoidea","nagy galóca",,,,,
"Amanita pachyvolvata","vastagburkú selyemgomba","nagybocskoros selyemgomba","vastagburkú galóca",,,
"Amanita pantherina","párducgalóca",,,,,
"Amanita phalloides","gyilkos galóca",,,,,
"Amanita porphyria","bíbor galóca",,,,,
"Amanita rubescens","piruló galóca",,,,,
"Amanita solitaria","tüskés galóca",,,,,
"Amanita strobiliformis","cafrangos galóca",,,,,
"Amanita vaginata","szürke selyemgomba","selymes galóca","szürkeselymes galóca",,,
"Amanita verna","fehér galóca",,,,,
"Amanita vittadinii","őzlábgalóca",,,,,
"Anellaria phalaenarum",,,,,,
"Antrodia albida","fehéres kéreggomba","fehéres lemezestapló",,,,
"Antrodia serialis","szalagtapló",,,,,
"Antrodiella hoehnelii","sárgaperemű kéreggombácska","apró egyrétűtapló",,,,
"Armillaria luteovirens",,,,,,
"Armillaria mellea","gyűrűs tuskógomba","csuprosgomba","mézszínű tölcsérgomba",,,
"Armillaria rickenii","bordás mohagomba",,,,,
"Armillaria tabescens",,,,,,
"Arrhenia retiruga","recés mohagomba",,,,,
"Arrhenia spathulata","karéjos mohagomba","barna mohagomba",,,,
"Artomyces pyxidatus","csészés álkorallgomba","serleges korallgomba",,,,
"Ascobolus viridis",,,,,,
"Ascocoryne cylichnium","bíbor porcoscsészegomba","őszi kocsonyagomba",,,,
"Ascocoryne sarcoides","hússzínű porcoscsészegomba","lila kocsonyagomba",,,,
"Aspropaxillus giganteus","hatalmas tölcsérgomba","óriás álpereszke","óriás cölöppereszke",,,
"Astraeus hygrometricus",,,,,,
"Athelia epiphylla",,,,,,
"Auricularia auriculajudae","júdásfülgomba","júdásfüle gomba","júdásfüle-gomba",,,
"Auricularia mesenterica","szalagos fülgomba",,,,,
"Auriculariopsis ampla",,,,,,
"Auriscalpium vulgare","tobozgereben","gyakori tobozgereben",,,,
"Baeospora myosura","toboz-fenyőfülőke","toboz fenyőfülőke",,,,
"Battarea phalloides",,,,,,
"Bisporella citrina","citromsárga csészegombácska",,,,,
"Bisporella sulfurina",,,,,,
"Bjerkandera adusta",,,,,,
"Bjerkandera fumosa",,,,,,
"Bolbitius coprophilus",,,,,,
"Bolbitius lacteus",,,,,,
"Bolbitius pluteoides",,,,,,
"Bolbitius reticulatus","szürkés kérészgomba","eres kérészgomba","lilás kérészgomba",,,
"Bolbitius variicolor","változékony kérészgomba",,,,,
"Bolbitius vitellinus","sárga kérészgomba",,,,,
"Boletinus cavipes",,,,,,
"Boletus aereus","bronzos vargánya","bronzos tinóru",,,,
"Boletus appendiculatus",,,,,,
"Boletus calopus",,,,,,
"Boletus depilatus",,,,,,
"Boletus dupainii",,,,,,
"Boletus edulis","ízletes vargánya","ízletes tinóru","jóféle vargánya","úrigomba",,
"Boletus erythropus",,,,,,
"Boletus fechtneri",,,,,,
"Boletus fragrans",,,,,,
"Boletus impolitus",,,,,,
"Boletus luridiformis",,,,,,
"Boletus luridus",,,,,,
"Boletus pinophilus","vörösbarna vargánya",,,,,
"Boletus piperatus","nyári vargánya","nyári tinóru",,,,
"Boletus pulverulentus",,,,,,
"Boletus radicans",,,,,,
"Boletus regius",,,,,,
"Boletus reticulatus",,,,,,
"Boletus rhodopurpureus",,,,,,
"Boletus rhodoxanthus",,,,,,
"Boletus rubinus",,,,,,
"Boletus satanas",,,,,,
"Boletus speciosus",,,,,,
"Boletus splendidus",,,,,,
"Boletus torosus",,,,,,
"Bovista nigrescens","feketedő pöfeteg","fekete sötétedőpöfeteg",,,,
"Bovista plumbea","szürke pöfeteg","szürke sötétedőpöfeteg",,,,
"Buglossoporus pulvinus",,,,,,
"Buglossoporus quercinus","tölgyfa-kérgestapló",,,,,
"Bulgaria inquinans","ocsonyás koronggomba",,,,,
"Callistosporium luteoolivaceum","sárgalemezű fülőke",,,,,
"Calocera cornea","árszerű enyveskorallgomba",,,,,
"Calocera viscosa","narancsszínű enyveskorallgomba","narancsszínű álkorallgomba",,,,
"Calocybe carnea","hússzínű pereszke",,,,,
"Calocybe cerina",,,,,,
"Calocybe chrysenteron","sárga pereszke","sárga lisztespereszke",,,,
"Calocybe constricta",,,,,,
"Calocybe gambosa","májusi pereszke","szentgyörgygomba","szentgyörgypereszke",,,
"Calocybe ionides","ibolyás pereszke",,,,,
"Calocybe persicolor","rózsás pereszke",,,,,
"Calvatia candida","foltos pöfeteg","foltos szétesőpöfeteg",,,,
"Calvatia excipuliformis",,,,,,
"Calvatia utriformis",,,,,,
"Camarophyllus lacmus",,,,,,
"Camarophyllus pratensis",,,,,,
"Camarophyllus virgineus",,,,,,
"Cantharellula umbonata","vörösödő tölcsérgomba",,,,,
"Cantharellus cibarius","sárga rókagomba","közönséges rókagomba","nyúlgomba",,,
"Cantharellus cinereus",,,,,,
"Cantharellus ianthinoxanthus","narancsvörös rókagomba","bársonyos rókagomba","vöröses rókagomba",,,
"Cantharellus melanoxeros",,,,,,
"Cantharellus tubaeformis",,,,,,
"Cantharellus xanthopus",,,,,,
"Ceraceomyces serpens","terjengős redősgomba","fehér redősgomba",,,,
"Ceriporia viridans","zöldes kéreggomba",,,,,
"Ceriporiopsis aneirinus",,,,,,
"Cerrena unicolor","szürke egyrétűtapló","egyszínű egyrétűtapló",,,,
"Chamaemyces fracidus",,,,,,
"Chlorociboria aeruginascens","foltosodó őzlábgomba",,,,,
"Chondrostereum purpureum","lilás réteggomba","lilás rétegtapló",,,,
"Ciboria bulgarioides",,,,,,
"Clathrus archeri","tintahalgomba",,,,,
"Clavaria fragilis",,,,,,
"Clavariadelphus pistillaris","vaskos mozsárütőgomba","mozsártörőgomba",,,,
"Clavulina amethystina","ametiszt-korallgomba","lila korallgomba",,,,
"Clavulina cinerea","szürke korallgomba","szürke fakó-korallgomba",,,,
"Clavulina cristata","fésűs korallgomba","fésűs fakó-korallgomba",,,,
"Clavulina rugosa","barázdás korallgomba","barázdás bunkógomba","barázdás fakó-korallgomba",,,
"Clavulinopsis corniculata","mohakorallgomba","mohaközti gyep-korallgomba",,,,
"Clitocybe agrestis","réti tölcsérgomba",,,,,
"Clitocybe augeana",,,,,,
"Clitocybe barbularum","buckaközi tölcsérgomba",,,,,
"Clitocybe bresadoliana","vörösbarna tölcsérgomba",,,,,
"Clitocybe candicans","fehér tölcsérgomba",,,,,
"Clitocybe clavipes",,,,,,
"Clitocybe concava",,,,,,
"Clitocybe costata",,,,,,
"Clitocybe dealbata",,,,,,
"Clitocybe diatreta","hússzínű tölcsérgomba",,,,,
"Clitocybe ericetorum","csarabos tölcsérgomba",,,,,
"Clitocybe fragrans","illatos tölcsérgomba","szagos tölcsérgomba",,,,
"Clitocybe gallinacea",,,,,,
"Clitocybe geotropa",,,,,,
"Clitocybe gibba",,,,,,
"Clitocybe glareosa",,,,,,
"Clitocybe herbarum","világosszürke tölcsérgomba",,,,,
"Clitocybe inornata",,,,,,
"Clitocybe lentiginosa",,,,,,
"Clitocybe lignatilis",,,,,,
"Clitocybe marginella",,,,,,
"Clitocybe maxima",,,,,,
"Clitocybe metachroa","kétszínű tölcsérgomba",,,,,
"Clitocybe nebularis","szürke tölcsérgomba","szürke tölcsérpereszke",,,,
"Clitocybe obsoleta",,,,,,
"Clitocybe odora","zöld ánizsgomba","ánizsszagú tölcsérgomba","zöldánizsos tölcsérgomba",,,
"Clitocybe phaeopthalma",,,,,,
"Clitocybe phyllophila",,,,,,
"Clitocybe pithyophila",,,,,,
"Clitocybe radicellata",,,,,,
"Clitocybe sinopica",,,,,,
"Clitocybe squamulosa",,,,,,
"Clitocybe squamulosoides",,,,,,
"Clitocybe subalutacea",,,,,,
"Clitocybe trulliformis","sötétköldökű tölcsérgomba",,,,,
"Clitocybe umbilicata",,,,,,
"Clitocybe vermicularis",,,,,,
"Clitocybe vibecina","lisztszagú tölcsérgomba","lágy tölcsérgomba",,,,
"Clitopilus hobsonii",,,,,,
"Clitopilus prunulus","kajsza lisztgomba","fehér cölöpgomba","réti cölöpgomba",,,
"Clitopilus scyphoides",,,,,,
"Colpoma quercinum",,,,,,
"Coltricia cinnamomea",,,,,,
"Coltricia perennis","szalagos likacsosgomba",,,,,
"Collybia acervata",,,,,,
"Collybia alkalivirens",,,,,,
"Collybia butyracea",,,,,,
"Collybia confluens",,,,,,
"Collybia distorta",,,,,,
"Collybia dryophila",,,,,,
"Collybia fusipes",,,,,,
"Collybia hariolorum",,,,,,
"Collybia hybrida",,,,,,
"Collybia impudica",,,,,,
"Collybia maculata",,,,,,
"Collybia marasmioides",,,,,,
"Collybia peronata",,,,,,
"Collybia succinea",,,,,,
"Collybia tergina",,,,,,
"Coniophora puteana","pincegomba","vastagbőrű foltgomba",,,,
"Conocybe ambigua",,,,,,
"Conocybe cyanopus",,,,,,
"Conocybe lactea","tejfehér haranggomba","fehér szemétgomba",,,,
"Conocybe mesospora",,,,,,
"Conocybe neoantipus",,,,,,
"Conocybe plicatella",,,,,,
"Conocybe pubescens",,,,,,
"Conocybe rickeniana",,,,,,
"Conocybe rickenii",,,,,,
"Conocybe semiglobata","domború haranggomba",,,,,
"Conocybe siliginea","trágyaharanggomba","trágya szemétgomba",,,,
"Conocybe subovalis",,,,,,
"Conocybe tenera","karcsú haranggomba",,,,,
"Coprinus alopecia",,,,,,
"Coprinus angulatus",,,,,,
"Coprinus atramentarius","szenes tintagomba",,,,,
"Coprinus auricomus",,,,,,
"Coprinus cinereus",,,,,,
"Coprinus comatus",,,,,,
"Coprinus disseminatus","sereges tintagomba",,,,,
"Coprinus domesticus","házi tintagomba",,,,,
"Coprinus ephemerus","kérésztintagomba",,,,,
"Coprinus erythrocephalus",,,,,,
"Coprinus flocculosus","pelyhes tintagomba",,,,,
"Coprinus friesii",,,,,,
"Coprinus impatiens","szürkelemezű tintagomba",,,,,
"Coprinus lagopides","kerekspórás tintagomba",,,,,
"Coprinus lagopus",,,,,,
"Coprinus luteocephalus",,,,,,
"Coprinus micaceus","kerti tintagomba",,,,,
"Coprinus narcoticus",,,,,,
"Coprinus niveus",,,,,,
"Coprinus picaceus",,,,,,
"Coprinus plicatilis",,,,,,
"Coprinus radians","szöszös tintagomba",,,,,
"Coprinus silvaticus","erdei tintagomba",,,,,
"Coprinus spilosporus",,,,,,
"Coprinus sterquilinus",,,,,,
"Coprinus tigrinellus",,,,,,
"Coprinus truncorum","csillámló tintagomba","fűzfa tintagomba",,,,
"Coprinus xanthothrix","sárgaszemcsés tintagomba",,,,,
"Coriolopsis gallica",,,,,,
"Coriolopsis trogii",,,,,,
"Cortinarius alboviolaceus",,,,,,
"Cortinarius aleuriosmus","lilásfehér pókhálósgomba","halványlila pókhálósgomba",,,,
"Cortinarius alnetorum","égeres pókhálósgomba",,,,,
"Cortinarius amarescens","okkersárga pókhálósgomba",,,,,
"Cortinarius ammophiloides",,,,,,
"Cortinarius ammophilus",,,,,,
"Cortinarius amoenolens","bükkös pókhálósgomba",,,,,
"Cortinarius anomalus","lilás pókhálósgomba","azúr pókhálósgomba",,,,
"Cortinarius aprinus",,,,,,
"Cortinarius arcuatorum","lilásperemű pókhálósgomba",,,,,
"Cortinarius armillatus","vörösövű pókhálósgomba",,,,,
"Cortinarius arvinaceus",,,,,,
"Cortinarius aurantioturbinatus",,,,,,
"Cortinarius aureopulverulentus",,,,,,
"Cortinarius azureus",,,,,,
"Cortinarius balaustinus",,,,,,
"Cortinarius balteatocumatilis","lilásburkú pókhálósgomba",,,,,
"Cortinarius balteatus",,,,,,
"Cortinarius bataillei",,,,,,
"Cortinarius betuletorum",,,,,,
"Cortinarius bibulus",,,,,,
"Cortinarius bicolor",,,,,,
"Cortinarius bolaris","vöröspikkelyes pókhálósgomba",,,,,
"Cortinarius bovinus","vastaglábú pókhálósgomba",,,,,
"Cortinarius brunneofulvus",,,,,,
"Cortinarius brunneus","barna pókhálósgomba","sötétbarna pókhálósgomba",,,,
"Cortinarius bulliardii","vöröslábú pókhálósgomba",,,,,
"Cortinarius caesiocyaneus",,,,,,
"Cortinarius caesiogriseus",,,,,,
"Cortinarius caesiostramineus",,,,,,
"Cortinarius callisteus","mozdonyfüstszagú pókhálósgomba","rebarbara pókhálósgomba",,,,
"Cortinarius callochrous","liláslemezű pókhálósgomba",,,,,
"Cortinarius camphoratus","bakszagú pókhálósgomba","erősszagú pókhálósgomba",,,,
"Cortinarius candelaris",,,,,,
"Cortinarius caninus","rozsdabarna pókhálósgomba","vékonyövű pókhálósgomba",,,,
"Cortinarius casimiri","színestönkű pókhálósgomba",,,,,
"Cortinarius castaneus","selymes pókhálósgomba",,,,,
"Cortinarius causticus",,,,,,
"Cortinarius cedretorum",,,,,,
"Cortinarius cinnabarinus","cinóberszínű pókhálósgomba","cinóberszínű bőrgomba",,,,
"Cortinarius cinnamomeoluteus","mustársárga pókhálósgomba","fahéjszínű pókhálósgomba","változékony bőrgomba",,,
"Cortinarius cinnamomeus","fahéjbarna pókhálósgomba","fahéjbarna bőrgomba","fahéjszínű pókhálósgomba",,,
"Cortinarius citrinolilacinus",,,,,,
"Cortinarius citrinus","sárgászöld pókhálósgomba","citromsárga pókhálósgomba",,,,
"Cortinarius claroflavus",,,,,,
"Cortinarius cliduchus","sárgaöves pókhálósgomba","pikkelykés pókhálósgomba","szemcséskalapú pókhálósgomba",,,
"Cortinarius coerulescens",,,,,,
"Cortinarius coerulescentium",,,,,,
"Cortinarius corruscans",,,,,,
"Cortinarius cotoneus","aprópikkelyes pókhálósgomba","olajzöld pókhálósgomba",,,,
"Cortinarius crassus","vastaghúsú pókhálósgomba",,,,,
"Cortinarius croceocoeruleus","sárgáskék pókhálósgomba",,,,,
"Cortinarius croceus","sárgalemezű pókhálósgomba",,,,,
"Cortinarius crystallinus",,,,,,
"Cortinarius cyanites","vörösödő pókhálósgomba",,,,,
"Cortinarius damascenus",,,,,,
"Cortinarius decipiens","sötétpúpos pókhálósgomba",,,,,
"Cortinarius delibutus","kéklemezű pókhálósgomba","sárga nyálkástönkűgomba",,,,
"Cortinarius diabolicorigens",,,,,,
"Cortinarius dionysae","lisztszagú pókhálósgomba",,,,,
"Cortinarius duracinus","orsóstönkű pókhálósgomba",,,,,
"Cortinarius duramarus",,,,,,
"Cortinarius durissimus",,,,,,
"Cortinarius eburneus","csontfehér pókhálósgomba",,,,,
"Cortinarius elegantior","elegáns pókhálósgomba",,,,,
"Cortinarius elotus",,,,,,
"Cortinarius emollitus",,,,,,
"Cortinarius erythrinus",,,,,,
"Cortinarius eufulmineus",,,,,,
"Cortinarius fagetorum",,,,,,
"Cortinarius fasciatus",,,,,,
"Cortinarius firmus",,,,,,
"Cortinarius flexipes","muskátliszagú pókhálósgomba",,,,,
"Cortinarius fulmineus",,,,,,
"Cortinarius fulvoincarnatus",,,,,,
"Cortinarius glandicolor",,,,,,
"Cortinarius glaucopus","szálaskalapú pókhálósgomba",,,,,
"Cortinarius helobius","pelyhes pókhálósgomba","kis övesgomba",,,,
"Cortinarius helvolus",,,,,,
"Cortinarius hemitrichus",,,,,,
"Cortinarius hinnuleoides",,,,,,
"Cortinarius hinnuleus","rozsdás pókhálósgomba","földszagú pókhálósgomba",,,,
"Cortinarius holophaeus",,,,,,
"Cortinarius iliopodius",,,,,,
"Cortinarius incisus","hasadtkalapú pókhálósgomba",,,,,
"Cortinarius infractus","keserű pókhálósgomba",,,,,
"Cortinarius integerrimus",,,,,,
"Cortinarius jubarinus",,,,,,
"Cortinarius laniger","fahéjvörös pókhálósgomba",,,,,
"Cortinarius largus","ligeti pókhálósgomba","fakólilás pókhálósgomba","nagy pókhálósgomba","színváltó pókhálósgomba",,
"Cortinarius latus",,,,,,
"Cortinarius lividoochraceus",,,,,,
"Cortinarius lividoviolaceus",,,,,,
"Cortinarius lucorum","berki pókhálósgomba",,,,,
"Cortinarius luteomarginatus",,,,,,
"Cortinarius macropus",,,,,,
"Cortinarius magicus","zöldperemű pókhálósgomba",,,,,
"Cortinarius mairei",,,,,,
"Cortinarius malachioides",,,,,,
"Cortinarius malachius","bőrszínű pókhálósgomba",,,,,
"Cortinarius malicorius","narancsvörös pókhálósgomba",,,,,
"Cortinarius melanotus","olajbarna pókhálósgomba",,,,,
"Cortinarius melleopallens",,,,,,
"Cortinarius mellinus",,,,,,
"Cortinarius moserianus",,,,,,
"Cortinarius mucifluus","északi pókhálósgomba",,,,,
"Cortinarius mucosus","fehértönkű pókhálósgomba",,,,,
"Cortinarius multiformis","sárgásbarna pókhálósgomba","fűrészeslemezű pókhálósgomba","közönséges pókhálósgomba",,,
"Cortinarius nemorensis",,,,,,
"Cortinarius obtusus","apró pókhálósgomba","fehérszálas pókhálósgomba",,,,
"Cortinarius occidentalis",,,,,,
"Cortinarius ochropallidus",,,,,,
"Cortinarius ochrophyllus","okkerlemezű pókhálósgomba",,,,,
"Cortinarius odoratus","ánizsszagú pókhálósgomba",,,,,
"Cortinarius olivaceofuscus","gyertyán-pókhálósgomba",,,,,
"Cortinarius olivascentium",,,,,,
"Cortinarius orellanus","mérges pókhálósgomba","mérges bőrgomba","rókaszínű pókhálósgomba",,,
"Cortinarius orichalceus",,,,,,
"Cortinarius paleaceus",,,,,,
"Cortinarius paleiferus",,,,,,
"Cortinarius papulosus","szemcsés-szálas pókhálósgomba",,,,,
"Cortinarius paracephalixus","nyárfa-pókhálósgomba",,,,,
"Cortinarius parfumatus","erősillatú pókhálósgomba",,,,,
"Cortinarius parvus",,,,,,
"Cortinarius percomis","majoránnaszagú pókhálósgomba","fűszerillatú pókhálósgomba",,,,
"Cortinarius phoeniceus",,,,,,
"Cortinarius pholideus","barnapikkelyes pókhálósgomba","pikkelyesövű pókhálósgomba",,,,
"Cortinarius pilatii",,,,,,
"Cortinarius pluvialis","peremes pókhálósgomba",,,,,
"Cortinarius porphyropus","ibolyástönkű pókhálósgomba",,,,,
"Cortinarius praestans","óriás pókhálósgomba",,,,,
"Cortinarius prasinocyaneus",,,,,,
"Cortinarius prasinus",,,,,,
"Cortinarius privignoides","mogyorószínű pókhálósgomba",,,,,
"Cortinarius pseudofulmineus",,,,,,
"Cortinarius pseudosalor","mézillatú pókhálósgomba",,,,,
"Cortinarius pseudosulphureus",,,,,,
"Cortinarius purpurascens","bíborlila pókhálósgomba","bíbor pókhálósgomba","rozsdafoltos pókhálósgomba",,,
"Cortinarius purpureobadius",,,,,,
"Cortinarius rapaceus",,,,,,
"Cortinarius raphanoides","retekszagú pókhálósgomba",,,,,
"Cortinarius renidens","sárga pókhálósgomba",,,,,
"Cortinarius rigens",,,,,,
"Cortinarius rigidus",,,,,,
"Cortinarius roseolimbatus",,,,,,
"Cortinarius rubicundulus","borvöröstönkű pókhálósgomba",,,,,
"Cortinarius rufoolivaceus","ibolyásvörös pókhálósgomba",,,,,
"Cortinarius salor","ibolyás pókhálósgomba","kék nyálkástönkű gomba","lila pókhálósgomba",,,
"Cortinarius saniosus","narancsszínű pókhálósgomba",,,,,
"Cortinarius saturninus","fűzfa-pókhálósgomba","füzes pókhálósgomba",,,,
"Cortinarius sciophyllus",,,,,,
"Cortinarius semisanguineus","vöröslemezű pókhálósgomba","vöröslemezű bőrgomba",,,,
"Cortinarius sertipes","nyáras pókhálósgomba",,,,,
"Cortinarius sodagnitus","ibolyáskék pókhálósgomba",,,,,
"Cortinarius sommerfeltii","narancssárga-lemezű pókhálósgomba",,,,,
"Cortinarius splendens","kénsárga pókhálósgomba","sárgafényű pókhálósgomba",,,,
"Cortinarius stemmatus","koszorús pókhálósgomba",,,,,
"Cortinarius stillatitius",,,,,,
"Cortinarius suaveolens",,,,,,
"Cortinarius subarquatus",,,,,,
"Cortinarius subbalteatus",,,,,,
"Cortinarius subcompar","tömzsi pókhálósgomba",,,,,
"Cortinarius subelegantior",,,,,,
"Cortinarius subfulgens",,,,,,
"Cortinarius sublatisporus",,,,,,
"Cortinarius subtortus","kesernyés pókhálósgomba",,,,,
"Cortinarius subvalidus",,,,,,
"Cortinarius sulfurinus",,,,,,
"Cortinarius talus","fakólemezű pókhálósgomba",,,,,
"Cortinarius tophaceus",,,,,,
"Cortinarius torvus","szagos pókhálósgomba","erősillatú pókhálósgomba","szagos övesgomba",,,
"Cortinarius triformis","változékony pókhálósgomba",,,,,
"Cortinarius triumphans","övestönkű pókhálósgomba",,,,,
"Cortinarius trivialis","nyálkástönkű pókhálósgomba","barnanyálkás pókhálósgomba","barna nyálkástönkű pókhálósgomba",,,
"Cortinarius tubarius","tőzegmoha-pókhálósgomba",,,,,
"Cortinarius turgidus",,,,,,
"Cortinarius uliginosus",,,,,,
"Cortinarius umidicola",,,,,,
"Cortinarius uraceus","feketésbarna pókhálósgomba",,,,,
"Cortinarius urbicus",,,,,,
"Cortinarius validus",,,,,,
"Cortinarius variecolor","földszagú pókhálósgomba","vastaghúsú pókhálósgomba","változékony pókhálósgomba",,,
"Cortinarius variegatus",,,,,,
"Cortinarius varius","zsemlebarna pókhálósgomba",,,,,
"Cortinarius venetus","olajzöldes pókhálósgomba","olajzöld pókhálósgomba",,,,
"Cortinarius vibratilis","epeízű pókhálósgomba",,,,,
"Cortinarius violaceus","sötétlila pókhálósgomba",,,,,
"Cortinarius volvatus",,,,,,
"Cortinarius vulpinus","csizmás pókhálósgomba",,,,,
"Cortinarius xanthophyllus","aranylemezű pókhálósgomba",,,,,
"Craterellus cornucopioides","sötét trombitagomba",,,,,
"Creolophus cirratus",,,,,,
"Crepidotus applanatus","csontfehér kacskagomba","bordás kacskagomba",,,,
"Crepidotus autochthonus",,,,,,
"Crepidotus caspari",,,,,,
"Crepidotus cesatii","ritkalemezű kacskagomba",,,,,
"Crepidotus crocophyllus","sárgalemezű kacskagomba",,,,,
"Crepidotus inhonestus",,,,,,
"Crepidotus luteolus",,,,,,
"Crepidotus mollis","kocsonyás kacskagomba",,,,,
"Crepidotus subsphaerosporus",,,,,,
"Crepidotus subverrucisporus","érdesspórás kacskagomba",,,,,
"Crepidotus variabilis","változékony kacskagomba",,,,,
"Crinipellis scabella","pikkelyes álszegfűgomba","pikkelyes álszegfűgombácska",,,,
"Crucibulum laeve","sárga tégelygomba","tégelygomba",,,,
"Crustomyces subabruptus",,,,,,
"Cyathus olla","szürkés pohárgomba",,,,,
"Cyathus striatus","csíkos pohárgomba",,,,,
"Cyphellopsis anomala",,,,,,
"Cystoderma amiantinum","sárga szemcsésgomba","sárga őzlábgomba","sárga szemcsés-őzlábgomba",,,
"Cystoderma carcharias","erősszagú szemcsésgomba","erősszagú őzlábgomba","erősszagú szemcsés-őzlábgomba",,,
"Cystoderma granulosum",,,,,,
"Cystoderma jasonis","rozsdasárga szemcsésgomba","okkeres szemcsés-őzlábgomba","rozsdasárga szemcsésőzlábgomba",,,
"Cystoderma superbum","borvörös szemcsésgomba","borvörös szemcsés-őzlábgomba",,,,
"Cystoderma terrei","cinóbervörös szemcsésgomba","cinóbervörös őzlábgomba",,,,
"Cystolepiota bucknallii","lila lisztesőzlábgomba","büdös lisztes-őzlábgomba","lila lisztes-őzlábgomba",,,
"Cystolepiota hetieri","vörösödő lisztesőzlábgomba","vörösödő lisztes-őzlábgomba",,,,
"Cystolepiota luteicystidiata",,,,,,
"Cystolepiota moelleri","rózsaszínű lisztesőzlábgomba","rózsaszínű lisztes-őzlábgomba",,,,
"Cystolepiota seminuda","fehér lisztesőzlábgomba","csillámló lisztesőzlábgomba","fehér lisztes-őzlábgomba","lisztes őzlábgomba",,
"Cystolepiota sistrata",,,,,,
"Cytidia salicina","vörös gyűszűgomba",,,,,
"Daedalea quercina","labirintustapló","labirinttapló",,,,
"Daedaleopsis confragosa","rózsaszínes egyrétűtapló",,,,,
"Daldinia concentrica","szenes gömbgomba","sávos széngömbgomba","szén-gömbgomba",,,
"Dasyscypha rosea",,,,,,
"Dasyscyphus virgineus",,,,,,
"Datronia mollis","hanyattfekvő egyrétűtapló","lágy őztapló",,,,
"Delicatula integrella","ráncoslemezű kígyógombácska","ráncoslemezű kígyógomba",,,,
"Dendrothele acerina","juhar-koronggombácska",,,,,
"Dermoloma atrocinereum",,,,,,
"Dermoloma cuneifolium","ráncos hamvaspereszke","csövestönkű pereszke","ráncos bársonypereszke",,,
"Diatrype disciformis","sarkos kéregtörőgomba",,,,,
"Discina parma",,,,,,
"Discina perlata","ráncos koronggomba","dudoros koronggomba","dudoros papsapkagomba",,,
"Disciotis venosa",,,,,,
"Disciseda bovista","nagy csészéspöfeteg","apró csészéspöfeteg","csészés pöfeteg","sötétedő csészés-pöfeteg",,
"Donkioporia expansa",,,,,,
"Eichleriella deglubens",,,,,,
"Elaphomyces muricatus","változékony álszarvasgomba",,,,,
"Endoptychum agaricoides",,,,,,
"Entoloma anatinum",,,,,,
"Entoloma aprile","áprilisi döggomba",,,,,
"Entoloma araneosum","szöszös döggomba","pókhálós döggomba",,,,
"Entoloma asprellum",,,,,,
"Entoloma bloxamii","ibolyakék döggomba",,,,,
"Entoloma byssisedum","suta döggomba","sutagomba",,,,
"Entoloma clypeatum","tövisaljagomba","tövisalja döggomba",,,,
"Entoloma conferendum","keresztspórás kupakgomba",,,,,
"Entoloma cyanulum",,,,,,
"Entoloma dichroum","kéktönkű pitykegomba",,,,,
"Entoloma euchroum","ibolyaszínű pitykegomba","ibolyaszínű döggomba",,,,
"Entoloma eulividum","nagy döggomba",,,,,
"Entoloma excentricum",,,,,,
"Entoloma fulvostrigosum",,,,,,
"Entoloma fuscotomentosum",,,,,,
"Entoloma griseocyaneum","szürkéskék pitykegomba",,,,,
"Entoloma hebes","karcsútönkű kupakgomba","karcsútönkű döggomba",,,,
"Entoloma hirtipes","törékeny kupakgomba",,,,,
"Entoloma incanum","zöldes pitykegomba","barnászöld döggomba",,,,
"Entoloma indutum",,,,,,
"Entoloma inutile",,,,,,
"Entoloma juncinum",,,,,,
"Entoloma lampropus",,,,,,
"Entoloma lanicum","nemezes köldökösgomba",,,,,
"Entoloma lividoalbum","szürkéskéktönkű pitykegomba","szürkéskéktönkű döggomba",,,,
"Entoloma longistriatum","bordáskalapú kupakgomba","bordáskalapú döggomba",,,,
"Entoloma mammosum",,,,,,
"Entoloma mougeotii",,,,,,
"Entoloma nitens",,,,,,
"Entoloma papillatum",,,,,,
"Entoloma parkensis",,,,,,
"Entoloma placidum","bükkös pitykegomba","bükkös döggomba",,,,
"Entoloma platyphylloides",,,,,,
"Entoloma pleopodium","citromsárga kupakgomba","illatos döggomba",,,,
"Entoloma porphyrophaeum","lilásbarna döggomba",,,,,
"Entoloma prunuloides","lisztszagú döggomba",,,,,
"Entoloma pseudoturbidum","változékony döggomba",,,,,
"Entoloma pseudoturci",,,,,,
"Entoloma queletii",,,,,,
"Entoloma rhodopolium","zöldesszürke döggomba","kis döggomba","nyári döggomba","szürke döggomba",,
"Entoloma rusticoides","barnalemezű köldökösgomba","barnalemezű döggomba",,,,
"Entoloma saepium","halványbarna döggomba","rózsa döggomba",,,,
"Entoloma saundersii","ezüstszürke döggomba",,,,,
"Entoloma sericellum","fehér pitykegomba",,,,,
"Entoloma sericeonitidum",,,,,,
"Entoloma sericeum","selymes döggomba","fényeskalapú döggomba",,,,
"Entoloma serrulatum","feketéskék pitykegomba","feketéskék döggomba",,,,
"Entoloma sordidulum","piszkos döggomba","szaruszürke döggomba",,,,
"Entoloma undatum","ötétlemezű köldökösgomba","sötétköldökös döggomba",,,,
"Entoloma vernum","tavaszi döggomba",,,,,
"Exidia glandulosa","kormos mirigygomba",,,,,
"Exidia plana",,,,,,
"Exidia recisa",,,,,,
"Exidia repanda",,,,,,
"Exobasidiellum graminicola",,,,,,
"Faerberia carbonaria","sötét szénlaska","szenes rókagomba",,,,
"Fistulina hepatica","májgomba","ökörnyelvgomba",,,,
"Flammulaster carpophiloides",,,,,,
"Flammulaster carpophilus",,,,,,
"Flammulaster limulatus",,,,,,
"Flammulaster muricatus",,,,,,
"Flammulaster siparius",,,,,,
"Flammulina fennae","fehérlemezű fülőke",,,,,
"Flammulina ononidis","iglice-fülőke","mezei télifülőke",,,,
"Flammulina velutipes","téli fülőke","akác-fülőke",,,,
"Floccularia straminea","réti pikkelyespereszke","sárgászöld pikkelyespereszke",,,,
"Fomes fomentarius","bükkfa-tapló","bükk-tapló","bükkfatapló","valódi tüzitapló",,
"Fomitopsis pinicola","szegett tapló",,,,,
"Galerina cerina",,,,,,
"Galerina embolus",,,,,,
"Galerina hypnorum","mohalakó sisakgomba","mohalakó rozsdásgomba",,,,
"Galerina laevis","gyepi sisakgomba","füves turjángomba",,,,
"Galerina marginata","fenyves sisakgomba","fenyő-tőkegomba","fenyves turjángomba",,,
"Galerina sphagnorum","tőzeges sisakgomba","tőzeges turjángomba","turjángomba",,,
"Galerina tibiicystis","tőzegmoha-sisakgomba",,,,,
"Galerina triscopa","hegyes sisakgomba","hegyes szemétgomba",,,,
"Galerina uncialis",,,,,,
"Galerina unicolor",,,,,,
"Galeropsis desertorum","pusztai hegyesgomba",,,,,
"Ganoderma adspersum","vastagkérgű tapló",,,,,
"Ganoderma lipsiense","deres tapló","derestapló",,,,
"Ganoderma lucidum","pecsétviaszgomba","lakkostapló",,,,
"Ganoderma pfeifferi","rézvörös lakkostapló","rézvörös lakkos tapló",,,,
"Ganoderma resinaceum","óriás lakkostapló",,,,,
"Gastrocybe latericia",,,,,,
"Gautieria graveolens",,,,,,
"Geastrum badium",,,,,,
"Geastrum berkeleyi","szemcsés csillaggomba",,,,,
"Geastrum corollinum","rideg csillaggomba",,,,,
"Geastrum coronatum","sötét csillaggomba","koronás csillaggomba",,,,
"Geastrum fimbriatum","közönséges csillaggomba","erdei csillaggomba","gyakori csillaggomba","molyhos csillaggomba",,
"Geastrum fornicatum","csészés csillaggomba",,,,,
"Geastrum lageniforme","hosszúkarú csillaggomba",,,,,
"Geastrum melanocephalum","poros csillaggomba","álcsillaggomba",,,,
"Geastrum minimum","apró csillaggomba",,,,,
"Geastrum nanum","kicsiny csillaggomba",,,,,
"Geastrum pectinatum","fésűs csillaggomba",,,,,
"Geastrum quadrifidum","fészkes csillaggomba","koronás csillaggomba",,,,
"Geastrum rufescens","rőt csillaggomba",,,,,
"Geastrum saccatum","zsákos csillaggomba","zacskós csillaggomba",,,,
"Geastrum striatum","galléros csillaggomba","fésűs csillaggomba","kehelycsillaggomba",,,
"Geastrum triplex","hármas csillaggomba",,,,,
"Geopyxis carbonaria","szenes kehelygomba","szenes kehelycsészegomba",,,,
"Gloeoporus dichrous","kétszínű likacsosgomba",,,,,
"Gloeoporus pannocinctus",,,,,,
"Gloiocephala caricis",,,,,,
"Gomphidius glutinosus","barna nyálkásgomba",,,,,
"Gomphidius maculatus","foltos nyálkásgomba",,,,,
"Gomphidius roseus","rózsaszínű nyálkásgomba","rózsapiros nyálkásgomba","rózsás nyálkásgomba",,,
"Gomphidius rutilus",,,,,,
"Gomphus clavatus","disznófülgomba","lila rókagomba","zápfoggomba",,,
"Grandinia arguta",,,,,,
"Grifola frondosa","ágas tapló","bokrosgomba",,,,
"Gymnopilus flavus",,,,,,
"Gymnopilus fulgens",,,,,,
"Gymnopilus penetrans","foltoslemezű lánggomba",,,,,
"Gymnopilus sapineus","bársonykalapú lánggomba","jegenyefenyő lánggomba",,,,
"Gymnopilus spectabilis",,,,,,
"Gymnopilus stabilis",,,,,,
"Gyrodon lividus","éger-tinóru",,,,,
"Gyromitra fastigiata",,,,,,
"Gyromitra gigas","óriás papsapkagomba",,,,,
"Gyromitra infula","püspöksüveggomba","csúcsos papsapkagomba","csúcsos redőgomba",,,
"Gyroporus castaneus","gesztenyebarna üregestinóru","gesztenye üregestinóru","gesztenyebarna tinóru","gesztenyetinóru",,
"Gyroporus cyanescens","kékesedő üregestinóru","kékesedő tinóru",,,,
"Haasiella venustissima","késői álbékagomba",,,,,
"Hapalopilus rutilans","fahéjszínű likacsosgomba","agyagsárga likacsosgomba","domború likacsosgomba",,,
"Hebeloma ammophilum",,,,,,
"Hebeloma anthracophilum","szenes fakógomba",,,,,
"Hebeloma circinans",,,,,,
"Hebeloma clavulipes",,,,,,
"Hebeloma collariatum",,,,,,
"Hebeloma crustuliniforme","zsemleszínű fakógomba","közönséges fakógomba",,,,
"Hebeloma funariophilum",,,,,,
"Hebeloma fusipes","illatos fakógomba",,,,,
"Hebeloma hiemale","fehérhúsú fakógomba",,,,,
"Hebeloma ingratum",,,,,,
"Hebeloma leucosarx",,,,,,
"Hebeloma longicaudum","hosszútönkű fakógomba",,,,,
"Hebeloma mesophaeum","sötétlábú fakógomba","barnahúsú fakógomba",,,,
"Hebeloma ochroalbidum","fehéres fakógomba",,,,,
"Hebeloma perpallidum",,,,,,
"Hebeloma populinum","nyárfa-fakógomba",,,,,
"Hebeloma psammocolum",,,,,,
"Hebeloma pseudoamarescens",,,,,,
"Hebeloma pumilum","törpe fakógomba",,,,,
"Hebeloma pusillum","apró fakógomba",,,,,
"Hebeloma radicosum","gyökeres fakógomba",,,,,
"Hebeloma sacchariolens","édesszagú fakógomba","édesillatú fakógomba","illatos fakógomba",,,
"Hebeloma sarcophyllum",,,,,,
"Hebeloma senescens",,,,,,
"Hebeloma sinapizans","retekszagú fakógomba",,,,,
"Hebeloma spoliatum",,,,,,
"Hebeloma strophosum",,,,,,
"Hebeloma subcaespitosum",,,,,,
"Hebeloma subsaponaceum",,,,,,
"Hebeloma truncatum",,,,,,
"Hebeloma vaccinum","tehénbarna fakógomba",,,,,
"Hebeloma versipelle",,,,,,
"Helicobasidium brebissonii",,,,,,
"Helvella acetabulum","bordás serleggomba","földalatti serleg gomba","nyeles serleggomba","serleges papsapkagomba",,
"Helvella albella",,,,,,
"Helvella atra","fekete papsapkagomba",,,,,
"Helvella corium","feketéllő papsapkagomba","bőrös papsapkagomba","feketéllő serleggomba","sötét papsapkagomba",,
"Helvella costifera","bordásnyelű papsapkagomba","bordásnyelű serleggomba",,,,
"Helvella crispa","fodros papsapkagomba",,,,,
"Helvella elastica","karcsú papsapkagomba","fodros papsapkagomba",,,,
"Helvella ephippium","bársonyos papsapkagomba",,,,,
"Helvella fusca","sujtásos papsapkagomba",,,,,
"Helvella lacunosa","szürke papsapkagomba",,,,,
"Helvella leucomelaena","sima papsapkagomba","sima serleggomba",,,,
"Helvella leucopus","homoki papsapkagomba","nyúlfülegomba",,,,
"Helvella queletii",,,,,,
"Helvella villosa","szöszös papsapkagomba",,,,,
"Hemimycena candida",,,,,,
"Hemimycena cucullata",,,,,,
"Hemimycena lactea","tejfehér álkígyógomba","tejfehér kígyógomba",,,,
"Hemimycena pithya",,,,,,
"Hemimycena pseudogracilis",,,,,,
"Hericium coralloides","közönséges petrezselyemgomba","bükkös petrezselyemgomba",,,,
"Hericium erinaceum","süngomba","cérnagomba","közönséges süngomba","szakállas süngomba",,
"Heterobasidion annosum","gyökérrontó tapló","gyökértapló",,,,
"Hohenbuehelia atrocoerulea","kocsonyás állaskagomba","kékesszürke állaska",,,,
"Hohenbuehelia geogenia",,,,,,
"Hohenbuehelia mastrucata","bundás állaskagomba",,,,,
"Hohenbuehelia petaloides","földi állaskagomba","lapátalakú földilaska",,,,
"Humaria hemisphaerica","fehér sörtéscsészegomba","fehér sörtés-csészegomba",,,,
"Hydnellum concrescens",,,,,,
"Hydnum repandum",,,,,,
"Hydropus subalpinus",,,,,,
"Hygrocybe aurantiosplendens",,,,,,
"Hygrocybe brevispora",,,,,,
"Hygrocybe calciphila","mészkedvelő nedűgomba",,,,,
"Hygrocybe calyptriformis",,,,,,
"Hygrocybe chlorophana","zöldessárga nedűgomba",,,,,
"Hygrocybe citrina",,,,,,
"Hygrocybe citrinovirens",,,,,,
"Hygrocybe coccinea","piros nedűgomba","cseresznyepiros nedűgomba",,,,
"Hygrocybe conica","feketedő nedűgomba","kúpos nedűgomba",,,,
"Hygrocybe conicoides","pusztai nedűgomba",,,,,
"Hygrocybe fornicata",,,,,,
"Hygrocybe glutinipes","enyvestönkű nedűgomba",,,,,
"Hygrocybe helobia",,,,,,
"Hygrocybe intermedia",,,,,,
"Hygrocybe konradii",,,,,,
"Hygrocybe laeta",,,,,,
"Hygrocybe lepida",,,,,,
"Hygrocybe marchii","aranysárga nedűgomba",,,,,
"Hygrocybe miniata","apró nedűgomba","míniumvörös nedűgomba","narancsvörös nedűgomba",,,
"Hygrocybe mollis",,,,,,
"Hygrocybe nigrescens","színváltó nedűgomba",,,,,
"Hygrocybe nitrata",,,,,,
"Hygrocybe obrussea","sárga nedűgomba",,,,,
"Hygrocybe ovina","törpe nedűgomba",,,,,
"Hygrocybe perplexa",,,,,,
"Hygrocybe persistens",,,,,,
"Hygrocybe psittacina",,,,,,
"Hygrocybe punicea","vérvörös nedűgomba",,"vörös nedűgomba",,,
"Hygrocybe reidii","mézszagú nedűgomba",,,,,
"Hygrocybe subglobispora",,,,,,
"Hygrocybe subpapillata","álcsúcsos nedűgomba",,,,,
"Hygrocybe unguinosa",,,,,,
"Hygrophoropsis aurantiaca","narancsvörös álrókagomba","narancssárga álrókagomba","narancsszínű tölcsérgomba","narancsvörös tölcsérgomba",,
"Hygrophoropsis pallida",,,,,,
"Hygrophorus agathosmus","szagos csigagomba","mandulaillatú csigagomba",,,,
"Hygrophorus arbustivus","késői csigagomba",,,,,
"Hygrophorus atramentosus","barnásszürke csigagomba",,,,,
"Hygrophorus chrysodon","sárgapelyhű csigagomba","sárgapelyhes csigagomba",,,,
"Hygrophorus discoideus","barnakorongos csigagomba",,,,,
"Hygrophorus discoxanthus","barnuló csigagomba",,,,,
"Hygrophorus eburneus","elefántcsont-csigagomba",,,,,
"Hygrophorus erubescens","piruló csigagomba",,,,,
"Hygrophorus fagi",,,,,,
"Hygrophorus hypothejus","fagyálló csigagomba",,,,,
"Hygrophorus latitabundus","barnanyálkás csigagomba",,,,,
"Hygrophorus lindtneri","gyertyán-csigagomba",,,,,
"Hygrophorus lucorum","vörösfenyő-csigagomba",,,,,
"Hygrophorus melizeus","nyírfa-csigagomba",,,,,
"Hygrophorus mesotephrus","olívszürke csigagomba",,,,,
"Hygrophorus nemoreus","ligeti csigagomba",,,,,
"Hygrophorus penarius","száraz csigagomba",,,,,
"Hygrophorus persicolor",,,,,,
"Hygrophorus persoonii","olajszínű csigagomba","olajbarna csigagomba",,,,
"Hygrophorus poetarum","izabellvöröses csigagomba","testes csigagomba",,,,
"Hygrophorus pustulatus","szürke csigagomba",,,,,
"Hygrophorus queletii","pikkelyes csigagomba",,,,,
"Hygrophorus russula","vörösfoltos csigagomba","csigapereszke",,,,
"Hygrophorus speciosus","narancssárga csigagomba",,,,,
"Hygrophorus tephroleucus",,,,,,
"Hygrophorus unicolor","karcsú csigagomba",,,,,
"Hygrotrama atropuncta",,,,,,
"Hygrotrama foetens",,,,,,
"Hymenochaete corrugata",,,,,,
"Hymenochaete rubiginosa","rozsdás sörtésréteggomba","rozsdás sörtésréteggomba",,,,
"Hymenoscyphus salicellus",,,,,,
"Hymenoscyphus scutula",,,,,,
"Hymenoscyphus virgultorum",,,,,,
"Hymenoscyphus vitellinus",,,,,,
"Hyphoderma mutatum",,,,,,
"Hyphoderma radula",,,,,,
"Hyphoderma setigerum","borostás terülőgomba",,,,,
"Hypholoma capnoides","fenyő-kénvirággomba",,,,,
"Hypholoma elongatum","tőzegmoha-kénvirággomba",,,,,
"Hypholoma ericaeoides","bordáskalapú kénvirággomba",,,,,
"Hypholoma fasciculare","sárga kénvirággomba",,,,,
"Hypholoma laeticolor",,,,,,
"Hypholoma subericaeum","parti kénvirággomba",,,,,
"Hypholoma sublateritium",,,,,,
"Hypholoma udum",,,,,,
"Hypoxylon cohaerens",,,,,,
"Hypoxylon deustum",,,,,,
"Hypoxylon fragiforme","vöröses ripacsgomba","ripacsosgomba",,,,
"Hypsizygus ulmarius",,,,,,
"Inocybe abjecta",,,,,,
"Inocybe acuta",,,,,,
"Inocybe adaequata","borvörös susulyka",,,,,
"Inocybe aeruginascens","zöldülőtönkű susulyka","zöldülő susulyka",,,,
"Inocybe albidodisca",,,,,,
"Inocybe amethystina","ametisztsusulyka",,,,,
"Inocybe assimilata",,,,,,
"Inocybe asterospora","csillagspórás susulyka",,,,,
"Inocybe auricoma",,,,,,
"Inocybe bongardii","illatos susulyka",,,,,
"Inocybe bresadolae","rókaszínű susulyka",,,,,
"Inocybe caesariata",,,,,,
"Inocybe calida","tüskésspórás susulyka",,,,,
"Inocybe calospora","őzbarna susulyka",,,,,
"Inocybe cincinnata","lilatönkű susulyka","barnáskék susulyka",,,,
"Inocybe cookei","gumós susulyka","gumóstönkű susulyka",,,,
"Inocybe corydalina","zöldpúpú susulyka","zöldcsúcsú susulyka",,,,
"Inocybe curvipes",,,,,,
"Inocybe descissa",,,,,,
"Inocybe dulcamara","olajsárga susulyka","okkersárga susulyka","olajbarna susulyka",,,
"Inocybe dunensis",,,,,,
"Inocybe erubescens","téglavörös susulyka",,,,,
"Inocybe fibrosoides",,,,,,
"Inocybe fraudans","körteszagú susulyka","körteillatú susulyka",,,,
"Inocybe fulvida",,,,,,
"Inocybe furfurea","feketecsúcsú susulyka",,,,,
"Inocybe fuscidula","sötétcsíkos susulyka",,,,,
"Inocybe fuscomarginata",,,,,,
"Inocybe geophylla","selymes susulyka",,,,,
"Inocybe godeyi","piruló susulyka","piros susulyka",,,,
"Inocybe grammata","kakaóbarna susulyka",,,,,
"Inocybe griseolilacina",,,,,,
"Inocybe griseovelata","szürkésfátyolú susulyka",,,,,
"Inocybe haemacta","vörösödő susulyka","pompás susulyka","zöldtönkű susulyka",,,
"Inocybe hirtella","mandulaillatú susulyka",,,,,
"Inocybe inodora","fehérfátylú susulyka",,,,,
"Inocybe insignissima",,,,,,
"Inocybe jacobi","apró susulyka",,,,,
"Inocybe javorkae","magyar susulyka",,,,,
"Inocybe lacera","orsóspórás susulyka","borzas susulyka",,,,
"Inocybe langei",,,,,,
"Inocybe lanuginella",,,,,,
"Inocybe lutescens",,,,,,
"Inocybe maculata","foltos susulyka","pettyes susulyka",,,,
"Inocybe malenconi",,,,,,
"Inocybe margaritispora",,,,,,
"Inocybe mixtilis","peremesgumós susulyka","csillagspórás susulyka",,,,
"Inocybe muricellata","sárgásbarna susulyka",,,,,
"Inocybe napipes","répatönkű susulyka",,,,,
"Inocybe nitidiuscula","kései susulyka",,,,,
"Inocybe oblectabilis","ibolyás susulyka",,,,,
"Inocybe obscurobadia","törpe susulyka","szürkés susulyka",,,,
"Inocybe ovatocystis","fenyves susulyka",,,,,
"Inocybe perbrevis","tobozspórás susulyka",,,,,
"Inocybe petiginosa",,,,,,
"Inocybe phaeodisca",,,,,,
"Inocybe praetervisa",,,,,,
"Inocybe pruinosa",,,,,,
"Inocybe pusio","dióbarna susulyka",,,,,
"Inocybe queletii",,,,,,
"Inocybe reisneri",,,,,,
"Inocybe rimosa","kerti susulyka",,,,,
"Inocybe similis",,,,,,
"Inocybe splendens","fénylő susulyka",,,,,
"Inocybe squamata","pikkelyes susulyka",,,,,
"Inocybe subcarpta","trapézspórás susulyka",,,,,
"Inocybe subtigrina",,,,,,
"Inocybe tenebrosa","sötéttönkű susulyka",,,,,
"Inocybe terrigena","földi susulyka",,,,,
"Inocybe trivialis",,,,,,
"Inocybe vulpinella",,,,,,
"Inocybe whitei","rózsásfehér susulyka",,,,,
"Inocybe xanthomelas",,,,,,
"Inonotus cuticularis","vékony rozsdástapló","vékony likacsosgomba",,,,
"Inonotus dryadeus","almafa-rozsdástapló","feketedő likacsosgomba",,,,
"Inonotus dryophilus",,,,,,
"Inonotus niduspici","kétalakú csertapló",,,,,
"Inonotus nodulosus",,,,,,
"Irpex lacteus","fehérbélű egyrétűtapló",,,,,
"Ischnoderma benzoinum","fenyő-kérgestapló",,,,,
"Ischnoderma resinosum","gyantás kérgestapló",,,,,
"Jahnoporus hirtus",,,,,,
"Junghuhnia nitida",,,,,,
"Kavinia himantia","terülő fésűsgomba",,,,,
"Kuehneromyces mutabilis","ízletes tőkegomba","változékony tőkegomba",,,,
"Laccaria amethystea","lila pénzecskegomba",,,,,
"Laccaria bicolor","kétszínű pénzecskegomba",,,,,
"Laccaria fraterna","kétspórás pénzecskegomba",,,,,
"Laccaria laccata","húsbarna pénzecskegomba","fakólemezű pénzecskegomba","változékony pénzecskegomba",,,
"Laccaria proxima","pikkelyes pénzecskegomba",,,,,
"Laccaria tortilis","apró pénzecskegomba",,,,,
"Lachnella villosa",,,,,,
"Lacrymaria lacrymabunda","könnyező szálkásgomba","könnyező porhanyósgomba",,,,
"Lactarius acerrimus","kereszterű tejelőgomba",,,,,
"Lactarius acris","vörösödőtejű tejelőgomba","rózsaszíntejű tejelőgomba",,,,
"Lactarius aspideus","fakólilás tejelőgomba","lilásodó keserűgomba",,,,
"Lactarius azonites","füstszínű tejelőgomba","hamvas tejelőgomba","rózsaszínváltó keserűgomba",,,
"Lactarius badiosanguineus","barnásvörös tejelőgomba",,,,,
"Lactarius blennius","zöldes tejelőgomba","zöldes keserűgomba",,,,
"Lactarius camphoratus","kámfor-tejelőgomba","cikória tejelőgomba","kámforszagú tejelőgomba",,,
"Lactarius chrysorrheus","sárgulótejű tejelőgomba",,,,,
"Lactarius circellatus","gyöngyös tejelőgomba","gyöngyös keserűgomba",,,,
"Lactarius controversus","rózsáslemezű tejelőgomba","vöröspettyes keserűgomba",,,,
"Lactarius cyathuliformis",,,,,,
"Lactarius decipiens","korai tejelőgomba","kénsárgatejű tejelőgomba",,,,
"Lactarius deliciosus",,,,,,
"Lactarius deterrimus","ízletes rizike","fenyőaljagomba","közönséges rizike","rizike tejelőgomba","rizikegomba",
"Lactarius flavidus","sárgáslila tejelőgomba","élénksárga tejelőgomba",,,,
"Lactarius flexuosus",,,,,,
"Lactarius fluens","fakószélű tejelőgomba","barnafoltos tejelőgomba",,,,
"Lactarius fuliginosus","barna tejelőgomba","vörösödőhúsú tejelőgomba",,,,
"Lactarius fulvissimus","narancsvörös tejelőgomba",,,,,
"Lactarius glyciosmus","illatos tejelőgomba","édesszagú tejelőgomba","fakó tejelőgomba",,,
"Lactarius helvus","daróc-tejelőgomba",,,,,
"Lactarius hepaticus","kései tejelőgomba",,,,,
"Lactarius hysginus","húsvörös tejelőgomba","húsvörös keserűgomba",,,,
"Lactarius insulsus",,,,,,
"Lactarius lacunarum","vízparti tejelőgomba","kénsárgatejű tejelőgomba","lápi tejelőgomba","mocsári tejelőgomba",,
"Lactarius lilacinus","lila tejelőgomba",,,,,
"Lactarius mairei","fakó szőrgomba","fakóbolyhos tejelőgomba",,,,
"Lactarius mammosus","szagos tejelőgomba","csúcsoskalapú tejelőgomba",,,,
"Lactarius mitissimus","fenyér-tejelőgomba","csarabos tejelőgomba",,,,
"Lactarius musteus",,,,,,
"Lactarius obscuratus","égerfa-tejelőgomba",,,,,
"Lactarius omphaliformis","bordásszélű tejelőgomba",,,,,
"Lactarius pallidus","fakó tejelőgomba","fakósárga tejelőgomba",,,,
"Lactarius pergamenus",,,,,,
"Lactarius picinus","fekete tejelőgomba",,,,,
"Lactarius piperatus",,,,,,
"Lactarius porninsis","vörösfenyő-tejelőgomba","narancssárga keserűgomba",,,,
"Lactarius pterosporus","szárnyasspórás tejelőgomba","rózsáshúsú tejelőgomba",,,,
"Lactarius pubescens","fehéres szőrgomba","fehér szőrgomba","fehérbolyhos tejelőgomba",,,
"Lactarius pyrogalus","mogyoró-tejelőgomba","mogyoró tejelőgomba","mogyoró-keserűgomba",,,
"Lactarius quietus","vörösbarna tejelőgomba","vörösbarna keserűgomba",,,,
"Lactarius resimus","borostásszélű tejelőgomba",,,,,
"Lactarius rubrocinctus","vörösgyűrűs tejelőgomba","vörösöves tejelőgomba",,,,
"Lactarius rufus","rőt tejelőgomba","rőt keserűgomba",,,,
"Lactarius rugatus",,,,,,
"Lactarius sanguifluus","vöröstejű rizike","vöröstejű tejelőgomba",,,,
"Lactarius scrobiculatus","szalmasárga tejelőgomba",,,,,
"Lactarius semisanguifluus","vörösödőtejű rizike",,,,,
"Lactarius serifluus","poloskaszagú tejelőgomba","cikória tejelőgomba","cikória-keserűgomba","cikóriaszagú tejelőgomba",,
"Lactarius sphagneti","tőzegmoha-tejelőgomba",,,,,
"Lactarius subdulcis","édeskés tejelőgomba","édes keserűgomba","édeskés keserűgomba",,,
"Lactarius subsericatus",,,,,,
"Lactarius subumbonatus",,,,,,
"Lactarius theiogalus","lápi tejelőgomba","csücskös tejelőgomba",,,,
"Lactarius torminosus","nyírfa-szőrgomba","vörösbolyhos tejelőgomba",,,,
"Lactarius turpis","sötét tejelőgomba","sötétbolyhos tejelőgomba",,,,
"Lactarius uvidus","barnáslilás tejelőgomba","lilásodó tejelőgomba",,,,
"Lactarius vellereus",,,,,,
"Lactarius vietus","szürkülő tejelőgomba","szürkülő keserűgomba",,,,
"Lactarius violascens","ibolyásodó tejelőgomba","ibolyás tejelőgomba",,,,
"Lactarius volemus",,,,,,
"Lactarius zonarius","begöngyöltszélű tejelőgomba","begöngyöltszélű keserűgomba",,,,
"Laeticorticium roseum",,,,,,
"Laetiporus sulphureus","sárga gévagomba","kénsárga gévagomba",,,,
"Langermannia gigantea","óriás pöfeteg",,,,,
"Laxitextum bicolor",,,,,,
"Leccinum duriusculum","nyárfa-érdestinóru","nyárfa-tinóru",,,,
"Leccinum griseum","sötét érdestinóru",,,,,
"Leccinum nigrescens",,,,,,
"Leccinum onychinum",,,,,,
"Leccinum oxydabile",,,,,,
"Leccinum quercinum",,,,,,
"Leccinum rotundifoliae",,,,,,
"Leccinum rufum",,,,,,
"Leccinum scabrum",,,,,,
"Leccinum variicolor","tarkahúsú érdestinóru",,,,,
"Leccinum versipelle","kormostönkű érdestinóru",,,,,
"Lentaria soluta",,,,,,
"Lentinellus cochleatus","ánizsszagú fűrészgomba","ánizsszagú fagomba",,,,
"Lentinellus omphalodes","köldökös fűrészgomba","köldökös fagomba",,,,
"Lentinellus ursinus","szöszös fűrészgomba","nemezes fagomba","szöszös fűrészesgomba",,,
"Lentinellus vulpinus","nemezes fűrészgomba","tönktelen fagomba",,,,
"Lentinula edodes","shiitake","illatos fagomba","japángomba","shiitake fagomba",,
"Lentinus cyathiformis",,,,,,
"Lentinus lepideus",,,,,,
"Lentinus tigrinus","nyár-fagomba","közönséges nyárfa-fagomba","nyárfa dücskőgomba","pikkelyes fagomba",,
"Lenzites betulinus","fakó lemezestapló",,,,,
"Leotia lubrica","zöld csuklyásgomba",,,,,
"Lepiota alba","fehér őzlábgomba","retekszagú őzlábgomba",,,,
"Lepiota aspera",,,,,,
"Lepiota bettinae",,,,,,
"Lepiota brunneoincarnata","húsbarnás őzlábgomba",,,,,
"Lepiota castanea","gesztenye-őzlábgomba","gesztenye őzlábgomba",,,,
"Lepiota clypeolaria","gyapjas őzlábgomba",,,,,
"Lepiota cristata","büdös őzlábgomba",,,,,
"Lepiota echinacea",,,,,,
"Lepiota forquignoni","olajszürke őzlábgomba",,,,,
"Lepiota fulvella","rókaszínű őzlábgomba","sárgásbarna őzlábgomba",,,,
"Lepiota fuscovinacea","borbarna őzlábgomba",,,,,
"Lepiota grangei","kékeszöld őzlábgomba","zöldes őzlábgomba",,,,
"Lepiota ignicolor","tűzszínű őzlábgomba",,,,,
"Lepiota ignivolvata","vöröslábú őzlábgomba",,,,,
"Lepiota langei","lilás őzlábgomba","lila őzlábgomba",,,,
"Lepiota lilacea",,,,,,
"Lepiota oreadiformis","sima őzlábgomba",,,,,
"Lepiota pallida",,,,,,
"Lepiota parvannulata",,,,,,
"Lepiota pseudoasperula",,,,,,
"Lepiota pseudofelina","szürkés őzlábgomba","sötétpikkelyes őzlábgomba",,,,
"Lepiota pseudolilacea","barnagallérú őzlábgomba","barnásibolya őzlábgomba","rózsástönkű őzlábgomba",,,
"Lepiota rhodorhiza",,,,,,
"Lepiota rufipes",,,,,,
"Lepiota subgracilis","csinos őzlábgomba",,,,,
"Lepiota subincarnata","rózsás őzlábgomba","húsrózsás őzlábgomba","rózsáslemezű őzlábgomba",,,
"Lepiota tomentella",,,,,,
"Lepiota ventriosospora",,,,,,
"Lepista caespitosa",,,,,,
"Lepista flaccida",,,,,,
"Lepista irina",,,,,,
"Lepista irinoides",,,,,,
"Lepista lentiginosa",,,,,,
"Lepista nuda",,,,,,
"Lepista panaeola",,,,,,
"Lepista personata",,,,,,
"Lepista rickenii",,,,,,
"Lepista sordida",,,,,,
"Leptopodia monachella",,,,,,
"Leucoagaricus brunneolilacinus","barnáslila tarlógomba",,,,,
"Leucoagaricus carneifolius",,,,,,
"Leucoagaricus cretaceus",,,,,,
"Leucoagaricus densifolius",,,,,,
"Leucoagaricus gaillardii",,,,,,
"Leucoagaricus holosericeus",,,,,,
"Leucoagaricus leucothites","fehér tarlógomba","rózsáslemezű tarlógomba","selymes tarlógomba","tarló-őzlábgomba",,
"Leucoagaricus macrorhizus","gyökeres tarlógomba",,,,,
"Leucoagaricus melanotrichus",,,,,,
"Leucoagaricus menieri",,,,,,
"Leucoagaricus pulverulentus",,,,,,
"Leucoagaricus subcretaceus",,,,,,
"Leucoagaricus subvolvatus","bocskoros tarlógomba","gumós selymes-őzlábgomba","gumós tarlógomba",,,
"Leucoagaricus wychanskyi","rózsásbarna tarlógomba",,,,,
"Leucocoprinus badhamii","feketedő őzlábgomba",,,,,
"Leucocoprinus birnbaumii","sárga bordásőzlábgomba","sárga bordás-őzlábgomba",,,,
"Leucocoprinus brebissonii",,,,,,
"Leucocoprinus cepistipes","hagymatönkű bordásőzlábgomba","bordás őzlábgomba",,,,
"Leucocoprinus cretatus",,,,,,
"Leucocoprinus croceovelutinus",,,,,,
"Leucocoprinus denudatus",,,,,,
"Leucocoprinus jubilaei",,,,,,
"Leucocoprinus lilacinogranulosus",,,,,,
"Leucocoprinus pilatianus",,,,,,
"Leucocortinarius bulbiger","gumós pereszke","csalóka álpókhálósgomba",,,,
"Leucopaxillus compactus","háromszínű álpereszke","háromszínű cölöppereszke",,,,
"Leucopaxillus cutefractus",,,,,,
"Leucopaxillus gentianeus","keserű álpereszke",,,,,
"Leucopaxillus lepistoides",,,,,,
"Leucopaxillus macrocephalus",,,,,,
"Leucopaxillus rhodoleucus",,,,,,
"Limacella delicata","tapadós nyálkásgalóca","vörösesbarna nyálkásgomba","nyálkás őzlábgomba",,,
"Limacella guttata","izzadó nyálkásgalóca","izzadó őzlábgomba",,,,
"Limacella illinita","csupasztönkű nyálkásgalóca","nyálkástönkű őzlábgomba",,,,
"Limacella ochraceolutea","okkersárga nyálkásgalóca",,,,,
"Limacella vinosorubescens",,,,,,
"Lopharia spadicea","sötét réteggomba","színváltó réteggomba",,,,
"Lycoperdon echinatum","tüskés pöfeteg","tüskés bimbóspöfeteg",,,,
"Lycoperdon foetidum","büdös pöfeteg","sötét bimbóspöfeteg",,,,
"Lycoperdon mammiforme","cafatos pöfeteg","pikkelyes bimbóspöfeteg",,,,
"Lycoperdon molle","barnás pöfeteg","puha bimbóspöfeteg",,,,
"Lycoperdon perlatum","bimbós pöfeteg",,,,,
"Lycoperdon pyriforme","körtealakú pöfeteg","csoportos pöfeteg",,,,
"Lycoperdon umbrinum","üstökös pöfeteg",,,,,
"Lycoperdon velatum","szélesszájú pöfeteg","barnás pöfeteg",,,,
"Lyophyllum ambustum",,,,,,
"Lyophyllum anthracophilum",,,,,,
"Lyophyllum atratum",,,,,,
"Lyophyllum caerulescens",,,,,,
"Lyophyllum carbonarium",,,,,,
"Lyophyllum connatum",,,,,,
"Lyophyllum decastes","sötét csoportospereszke","csoportos álpereszke","csoportos pereszke",,,
"Lyophyllum fumosum","barna csoportospereszke","bokros álpereszke","csoportos pereszke","sötét pereszke",,
"Lyophyllum inolens",,,,,,
"Lyophyllum konradianum",,,,,,
"Lyophyllum mephiticum",,,,,,
"Lyophyllum oldae",,,,,,
"Lyophyllum rancidum",,,,,,
"Lyophyllum transforme","kékülő álpereszke",,,,,
"Macrocystidia cucumis",,,,,,
"Macrolepiota citrinascens",,,,,,
"Macrolepiota excoriata",,,,,,
"Macrolepiota gracilenta",,,,,,
"Macrolepiota konradii",,,,,,
"Macrolepiota mastoidea","karcsú őzlábgomba",,,,,
"Macrolepiota nordica",,,,,,
"Macrolepiota olivascens",,,,,,
"Macrolepiota permixta","vörösödő őzlábgomba","sötéthúsú nagyőzlábgomba",,,,
"Macrolepiota procera","nagy őzlábgomba","gyakori nagyőzlábgomba",,,,
"Macrolepiota puellaris",,,,,,
"Macrolepiota rachodes",,,,,,
"Macrolepiota rickenii",,,,,,
"Macrotyphula filiformis",,,,,,
"Macrotyphula fistulosa",,,,,,
"Marasmiellus amadelphus",,,,,,
"Marasmiellus candidus","hófehér szegfűgombácska",,,,,
"Marasmiellus ramealis","fántermő szegfűgombácska","fántermő szegfűgomba",,,,
"Marasmius alliaceus",,,,,,
"Marasmius androsaceus",,,,,,
"Marasmius anomalus","homoki szegfűgomba",,,,,
"Marasmius bulliardii","feketeközepű szegfűgomba","cérnatönkű szegfűgomba",,,,
"Marasmius cohaerens","szarutönkű szegfűgomba",,,,,
"Marasmius collinus","üregestönkű szegfűgomba",,,,,
"Marasmius epiphylloides","borostyán-szegfűgomba",,,,,
"Marasmius epiphyllus","apró szegfűgomba",,,,,
"Marasmius graminum","narancsvörös szegfűgomba",,,,,
"Marasmius limosus",,,,,,
"Marasmius litoralis",,,,,,
"Marasmius oreades","mezei szegfűgomba","csirkegomba","illatos szegfűgomba","közönséges szegfűgomba",,
"Marasmius prasiosmus",,,,,,
"Marasmius quercophilus",,,,,,
"Marasmius rotula","nyakörves szegfűgomba",,,,,
"Marasmius saccharinus",,,,,,
"Marasmius scorodonius",,,,,,
"Marasmius torquescens","sárgás szegfűgomba","bársonyosövű szegfűgomba",,,,
"Marasmius wettsteinii",,,,,,
"Marasmius wynnei","erdei szegfűgomba","változékony szegfűgomba",,,,
"Megacollybia platyphylla",,,,,,
"Melanogaster variegatus",,,,,,
"Melanoleuca arcuata",,,,,,
"Melanoleuca brevipes","rövidtönkű csupaszpereszke","rövidtönkű lágypereszke","rövidtönkű pereszke",,,
"Melanoleuca candida",,,,,,
"Melanoleuca cognata","fakósárga csupaszpereszke","fakósárga pereszke","korai lágypereszke",,,
"Melanoleuca exscissa","fakószürke csupaszpereszke","fakószürke lágypereszke",,,,
"Melanoleuca grammopodia","rovátkolttönkű csupaszpereszke",,,,,
"Melanoleuca humilis",,,,,,
"Melanoleuca melaleuca","sötétlábú csupaszpereszke","sötétlábú pereszke","változékony lágypereszke","változékony pereszke",,
"Melanoleuca metrodii","lisztestönkű csupaszpereszke","lisztestönkű lágypereszke",,,,
"Melanoleuca microcephala",,,,,,
"Melanoleuca paedida",,,,,,
"Melanoleuca polioleuca","márványos csupaszpereszke","márványos lágypereszke",,,,
"Melanoleuca rasilis",,,,,,
"Melanoleuca strictipes","fehér csupaszpereszke","merevtönkű pereszke","hegyaljai lágypereszke",,,
"Melanoleuca verrucipes","szemölcsös csupaszpereszke","szemcséstönkű lágypereszke","szemölcsös pereszke",,,
"Melanophyllum eyrei",,,,,,
"Melanophyllum haematospermum","vöröslemezű őzlábgomba","vöröslemezű korpás-őzlábgomba",,,,
"Meripilus giganteus","óriás bokrosgomba","óriás likacsosgomba",,,,
"Meruliopsis corium",,,,,,
"Merulius tremellosus",,,,,,
"Microcollybia cirrhata",,,,,,
"Microcollybia cookei",,,,,,
"Microcollybia racemosa",,,,,,
"Microcollybia tuberosa",,,,,,
"Micromphale brassicolens",,,,,,
"Micromphale foetidum",,,,,,
"Micromphale perforans",,,,,,
"Microstoma protracta","csoportos csészegomba","csoportos piros-csészegomba",,,,
"Mitrophora semilibera",,,,,,
"Mollisia cinerea","szürkés csészegombácska",,,,,
"Mollisia ligni","bomladék csészegombácska",,,,,
"Mollisia palustris",,,,,,
"Montagnea radiosa","kalapos pöfeteg",,,,,
"Morchella esculenta","ízletes kucsmagomba","közönséges kucsmagomba","sötét kucsmagomba","vastaglábú kucsmagomba","vastagtönkű kucsmagomba",
"Mutinus caninus","közönséges kutyaszömörcsög","kutyaszömörcsög",,,,
"Mycena abramsii","korai kígyógomba",,,,,
"Mycena acicula","narancsvörös kígyógomba",,,,,
"Mycena aetites","szürkelemezű kígyógomba",,,,,
"Mycena alba",,,,,,
"Mycena albidolilacea",,,,,,
"Mycena amicta","kéklábú kígyógomba",,,,,
"Mycena atropapillata",,,,,,
"Mycena aurantiomarginata","narancsszegélyű kígyógomba","narancsosélű kígyógomba",,,,
"Mycena avenacea",,,,,,
"Mycena belliae","nádi kígyógomba",,,,,
"Mycena chlorantha",,,,,,
"Mycena cinerella","hamuszürke kígyógomba",,,,,
"Mycena crocata","sárgatejű kígyógomba",,,,,
"Mycena epipterygia","enyves kígyógomba",,,,,
"Mycena erubescens",,,,,,
"Mycena flavescens",,,,,,
"Mycena flavoalba",,,,,,
"Mycena galericulata","rózsáslemezű kígyógomba",,,,,
"Mycena galopus","fehértejű kígyógomba",,,,,
"Mycena haematopus","vérző kígyógomba",,,,,
"Mycena inclinata","cifra kígyógomba",,,,,
"Mycena leptocephala","klórszagú kígyógomba","szagos kígyógomba",,,,
"Mycena maculata","foltos kígyógomba",,,,,
"Mycena meliigena",,,,,,
"Mycena niveipes",,,,,,
"Mycena olida",,,,,,
"Mycena pelianthina","feketeszegélyű kígyógomba",,,,,
"Mycena polygramma","barázdálttönkű kígyógomba",,,,,
"Mycena pseudopicta",,,,,,
"Mycena pterigena",,,,,,
"Mycena pullata",,,,,,
"Mycena pura","retekszagú kígyógomba",,,,,
"Mycena purpureofusca",,,,,,
"Mycena renati","sárgástönkű kígyógomba",,,,,
"Mycena rorida",,,,,,
"Mycena rosea","rózsás kígyógomba",,,,,
"Mycena rubromarginata","vörösszegélyű kígyógomba","vörösbarnaélű kígyógomba",,,,
"Mycena saccharifera",,,,,,
"Mycena sanguinolenta","vöröstejű kígyógomba","csillagpapucsú kígyógomba",,,,
"Mycena stipata","lúgszagú kígyógomba",,,,,
"Mycena stylobates","papucsos kígyógomba",,,,,
"Mycena vitilis","szívóstönkű kígyógomba",,,,,
"Mycena vulgaris","nyálkás kígyógomba",,,,,
"Mycena zephirus","rozsdafoltos kígyógomba",,,,,
"Mycenastrum corium","hasadt pöfeteg",,,,,
"Mycenella margaritispora",,,,,,
"Mycoacia aurea","áttetsző fésűsgomba",,,,,
"Mycoacia uda",,,,,,
"Myriostoma coliforme","szitaszájú csillaggomba",,,,,
"Naemacyclus niveus",,,,,,
"Nyctalis asterophora",,,,,,
"Octavianina asterosperma","rumillatú bazsalikompöfeteg","bazsalikom-álpöfeteg","bazsalikomillatú szarvasgomba",,,
"Omphalina ericetorum",,,,,,
"Omphalina galericolor",,,,,,
"Omphalina obscurata",,,,,,
"Omphalina oniscus",,,,,,
"Omphalina postii",,,,,,
"Omphalina pyxidata","fahéjszínű békagomba","békagomba","selymes békagomba",,,
"Omphalina rustica",,,,,,
"Omphalina velutipes",,,,,,
"Omphalotus olearius",,,,,,
"Orbilia curvatispora",,,,,,
"Orbilia luteorubella","rózsaszín koronggombácska",,,,,
"Otidea alutacea","bőrsárga fülesgomba","rozsdabarna fülesgomba",,,,
"Otidea cochleata","csomós fülesgomba","csigafülesgomba",,,,
"Otidea felina","macskafülesgomba","macskafülegomba",,,,
"Otidea onotica","nyúlfülegomba","nyeles fülesgomba","nyúlfülegomba",,,
"Oudemansiella mucida",,,,,,
"Oxyporus corticola","csinos kéreggomba",,,,,
"Oxyporus populinus","lépcsőzetes kéregtapló",,,,,
"Pachykytospora tuberculosa",,,,,,
"Pachyphloeus melanoxanthus","fekete kérgestrifla","feketedő kérgesszarvasgomba","feketedő szarvasgomba",,,
"Panaeolus ater",,,,,,
"Panaeolus caliginosus",,,,,,
"Panaeolus cyanescens",,,,,,
"Panaeolus fimicola","sötét trágyagomba",,,,,
"Panaeolus fimiputris",,,,,,
"Panaeolus foenisecii",,,,,,
"Panaeolus guttulatus",,,,,,
"Panaeolus papilionaceus","csipkés trágyagomba","fakó trágyagomba","halvány trágyagomba","harangos trágyagomba",,
"Panaeolus retirugis",,,,,,
"Panellus serotinus","sárgatönkű áldücskőgomba","sárgatönkű dücskőgomba",,,,
"Panellus stypticus",,,,,,
"Panus lecomtei",,,,,,
"Panus torulosus","lilás dücskőgomba","nyírfa-dücskőgomba",,,,
"Paxillus atrotomentosus",,,,,,
"Paxillus involutus",,,,,,
"Paxillus panuoides","sörtés dücskőgomba",,,,,
"Paxillus rubicundulus",,,,,,
"Peniophora cinerea","szürke terülőgomba",,,,,
"Peniophora incarnata","élénkszínű terülőgomba","rejtett terülőgomba",,,,
"Peniophora laeta",,,,,,
"Peniophora quercina","tölgyfa-terülőgomba",,,,,
"Perenniporia fraxinea","kőris-tapló",,,,,
"Peziza badia","barna csészegomba",,,,,
"Peziza celtica",,,,,,
"Peziza depressa","gesztenyebarna csészegomba","barnáslila csészegomba",,,,
"Peziza limnaea","pocsolya-csészegomba",,,,,
"Peziza micropus","mogyoróbarna csészegomba","rövidtönkű csészegomba",,,,
"Peziza saniosa","ibolyástejű csészegomba",,,,,
"Peziza vesiculosa","melegágyi csészegomba",,,,,
"Pezoloma rhodocarpa",,,,,,
"Phaeocollybia christinae",,,,,,
"Phaeocollybia jennyae",,,,,,
"Phaeocollybia lugubris",,,,,,
"Phaeolus spadiceus",,,,,,
"Phaeomarasmius erinaceus",,,,,,
"Phaeomarasmius rimulincola",,,,,,
"Phallus hadriani","homoki szömörcsög",,,,,
"Phallus impudicus","erdei szömörcsög","szemérmetlen szömörcsög","szemtelen szömörcsög",,,
"Phanerochaete calotricha",,,,,,
"Phanerochaete sanguinea","vörös terülőgomba",,,,,
"Phanerochaete velutina","bársonyos terülőgomba",,,,,
"Phellinus conchatus",,,,,,
"Phellinus contiguus",,,,,,
"Phellinus ferruginosus","fátyolos szömörcsög",,,,,
"Phellinus igniarius","parázstapló","tűzi tapló",,,,
"Phellinus punctatus",,,,,,
"Phellinus robustus",,,,,,
"Phellinus torulosus",,,,,,
"Phellinus tremulae","nyárfa-tapló",,,,,
"Phellinus trivialis",,,,,,
"Phellinus tuberculosus","szilva-tapló",,,,,
"Phellodon connatus","szalagos szagosgereben","szagos gereben",,,,
"Phlebia deflectens",,,,,,
"Phlebia merismoides",,,,,,
"Phlebia rufa",,,,,,
"Phlebiella vaga",,,,,,
"Pholiota adiposa","nyálkás tőkegomba","óriás tőkegomba",,,,
"Pholiota alnicola",,,,,,
"Pholiota carbonaria",,,,,,
"Pholiota cerifera","rozsdasárga tőkegomba",,,,,
"Pholiota flammans","lángszínű tőkegomba",,,,,
"Pholiota flavida",,,,,,
"Pholiota graminis",,,,,,
"Pholiota gummosa","zöldes tőkegomba","zöldes lánggomba","zöldessárga tőkegomba",,,
"Pholiota jahnii","sötétpikkelyes tőkegomba",,,,,
"Pholiota lenta","fakó tőkegomba","fakó lánggomba",,,,
"Pholiota lubrica","fehérpelyhes tőkegomba","fehérpelyhes lánggomba",,,,
"Pholiota lucifera",,,,,,
"Pholiota oedipus",,,,,,
"Pholiota populnea",,,,,,
"Pholiota scamba","selymes tőkegomba","barnás álcölöpgomba",,,,
"Pholiota spumosa","ragadós tőkegomba","ragadós lánggomba",,,,
"Pholiota squarrosa","tüskés tőkegomba","alma-tőkegomba",,,,
"Pholiota squarrosoadiposa","tüskés-nyálkás tőkegomba",,,,,
"Pholiota tuberculosa",,,,,,
"Pholiotina arrhenii",,,,,,
"Pholiotina blattaria",,,,,,
"Pholiotina dentatomarginata",,,,,,
"Pholiotina subnuda",,,,,,
"Pholiotina subverrucispora","japán tőkegomba",,,,,
"Pholiotina teneroides","kétspórás tőkegombácska",,,,,
"Phylloporus pelletieri","lemezes tinóru",,,,,
"Phyllotopsis nidulans","narancssárga laskagomba","nemezes narancsoslaska",,,,
"Physisporinus sanguinolentus",,,,,,
"Piptoporus betulinus",,,,,,
"Pisolithus arhizus",,,,,,
"Plectania melastoma",,,,,,
"Pleurotus calyptratus","fátyolos laskagomba","galléros laskagomba",,,,
"Pleurotus cornucopiae","erestönkű laskagomba",,,,,
"Pleurotus dryinus","pihés laskagomba",,,,,
"Pleurotus eryngii","ördögszekér-laskagomba","ördögszekér laskagomba",,,,
"Pleurotus ostreatus","kései laskagomba","késői laskagomba",,,,
"Pleurotus pulmonarius","nyári laskagomba",,,,,
"Pleurotus spondoleucus",,,,,,
"Plicatura crispa","bükk-eresgomba","bükk eresgombácska",,,,
"Pluteus aurantiorugosus","feketeélű csengettyűgomba",,,,,
"Pluteus boudieri",,,,,,
"Pluteus cervinus","barna csengettyűgomba","változékony csengettyűgomba",,,,
"Pluteus chrysophaeus","sárgászöld csengettyűgomba",,,,,
"Pluteus cinereofuscus","zöldesszürke csengettyűgomba",,,,,
"Pluteus cyanopus",,,,,,
"Pluteus ephebeus","szürkepikkelyű csengettyűgomba","pelyhes csengettyűgomba",,,,
"Pluteus hispidulus","hajas csengettyűgomba",,,,,
"Pluteus inquilinus",,,,,,
"Pluteus leoninus","sárga csengettyűgomba",,,,,
"Pluteus luteovirens",,,,,,
"Pluteus nanus","apró csengettyűgomba","pelyhes csengettyűgomba",,,,
"Pluteus nigrofloccosus",,,,,,
"Pluteus nigroviridis",,,,,,
"Pluteus olivaceus",,,,,,
"Pluteus pallescens","fakó csengettyűgomba","fakuló csengettyűgomba",,,,
"Pluteus pellitus","fehér csengettyűgomba",,,,,
"Pluteus petasatus","selymes csengettyűgomba","csoportos csengettyűgomba",,,,
"Pluteus phlebophorus","ereskalapú csengettyűgomba",,,,,
"Pluteus plautus",,,,,,
"Pluteus podospileus","szemcsés csengettyűgomba",,,,,
"Pluteus pseudorobertii","szürkecsúcsú csengettyűgomba",,,,,
"Pluteus romellii","sárgalábú csengettyűgomba","sárgatönkű csengettyűgomba",,,,
"Pluteus roseipes",,,,,,
"Pluteus salicinus","zöldülő csengettyűgomba","szürke csengettyűgomba",,,,
"Pluteus thomsonii","barnaeres csengettyűgomba","szürketönkű csengettyűgomba",,,,
"Pluteus umbrosus","feketepelyhes csengettyűgomba","pelyhescsengettyűgomba",,,,
"Pluteus variabilicolor","narancsos csengettyűgomba","változószínű csengettyűgomba",,,,
"Polyporus arcularius","fagyálló likacsosgomba",,,,,
"Polyporus badius",,,,,,
"Polyporus brumalis","téli likacsosgomba",,,,,
"Polyporus ciliatus","tavaszi likacsosgomba",,,,,
"Polyporus leptocephalus","változékony likacsosgomba","feketeövű likacsosgomba",,,,
"Polyporus melanopus",,,,,,
"Polyporus mori",,,,,,
"Polyporus rhizophilus",,,,,,
"Polyporus squamosus","pisztricgomba","bagolygomba",,,,
"Polyporus tuberaster","olaszgomba","gumós likacsosgomba",,,,
"Poronia punctata","pontozott szitagomba","pontozott maggomba",,,,
"Porphyrellus porphyrosporus","fenyő-tapló",,,,,
"Porpoloma spinulosum",,,,,,
"Protodontia subgelatinosa",,,,,,
"Psathyrella albidula",,,,,,
"Psathyrella ammophila","homoki porhanyósgomba",,,,,
"Psathyrella bipellis","pirosbarna porhanyósgomba",,,,,
"Psathyrella candolleana","fehér porhanyósgomba",,,,,
"Psathyrella conopilus",,,,,,
"Psathyrella corrugis","törékeny porhanyósgomba","hosszúgyökerű porhanyósgomba","karcsú porhanyósgomba","karcsú tücsökgomba","sötétlemezű porhanyósgomba",
"Psathyrella cotonea","sárgatövű porhanyósgomba","szürkepikkelyű porhanyósgomba",,,,
"Psathyrella fulvescens",,,,,,
"Psathyrella gracilis",,,,,,
"Psathyrella leucotephra","gyűrűs porhanyósgomba",,,,,
"Psathyrella marcescibilis",,,,,,
"Psathyrella melanthina",,,,,,
"Psathyrella microrrhiza","gyökeres porhanyósgomba",,,,,
"Psathyrella multipedata","csoportos porhanyósgomba",,,,,
"Psathyrella narcotica",,,,,,
"Psathyrella obtusata",,,,,,
"Psathyrella orbitarum",,,,,,
"Psathyrella piluliformis","barna porhanyósgomba",,,,,
"Psathyrella prona","útszéli porhanyósgomba",,,,,
"Psathyrella pseudocorrugis","változékony porhanyósgomba","változatosszínű porhanyósgomba",,,,
"Psathyrella pseudogracilis",,,,,,
"Psathyrella pygmaea",,,,,,
"Psathyrella pyrotricha",,,,,,
"Psathyrella sarcocephala",,,,,,
"Psathyrella silvestris",,,,,,
"Psathyrella spadicea",,,,,,
"Psathyrella spadiceogrisea","korai porhanyósgomba","barnásszürke porhanyósgomba","keskenylemezű porhanyósgomba",,,
"Psathyrella spintrigera",,,,,,
"Psathyrella typhae","nádi porhanyósgomba",,,,,
"Pseudoclitocybe cyathiformis","kávébarna áltölcsérgomba",,,,,
"Pseudoclitocybe expallens",,,,,,
"Pseudoclitocybe obbata","kékesszürke áltölcsérgomba",,,,,
"Pseudocraterellus undulatus","fodros trombitagomba","fodros áltrombitagomba","tömör trombitagomba",,,
"Pseudohydnum gelatinosum","kocsonyás álgereben",,,,,
"Pseudoomphalina kalchbrenneri","homoki álbékagomba",,,,,
"Pseudoplectania nigrella","ülő gyászoscsészegomba","ülő gyászos csészegomba",,,,
"Psilocybe coprophila",,,,,,
"Psilocybe cyanescens","kékülő badargomba",,,,,
"Psilocybe inquilina",,,,,,
"Psilocybe laetissima",,,,,,
"Psilocybe merdaria",,,,,,
"Psilocybe montana",,,,,,
"Psilocybe muscorum",,,,,,
"Psilocybe physaloides",,,,,,
"Psilocybe rhombispora",,,,,,
"Pulveroboletus gentilis",,,,,,
"Pulvinula constellatio",,,,,,
"Pycnoporellus fulgens","aranyos likacsosgomba",,,,,
"Pycnoporus cinnabarinus","cinóbertapló",,,,,
"Pyronema domesticum","közönséges tűznyomcsészegomba",,,,,
"Radulomyces molaris","barnás fogasvargomba","barna fogasgereben",,,,
"Ramaria abietina",,,,,,
"Ramaria aurea","aranysárga korallgomba","narancsszínű korallgomba",,,,
"Ramaria bataillei",,,,,,
"Ramaria botrytis","rózsáságú korallgomba",,,,,
"Ramaria flava","sárga korallgomba",,,,,
"Ramaria formosa","cifra korallgomba","háromszínű korallgomba",,,,
"Ramaria fumigata","ibolyás korallgomba",,,,,
"Ramaria sanguinea","vörösfoltos korallgomba",,,,,
"Ramaria stricta","merev korallgomba","fésűs korallgomba",,,,
"Ramariopsis pulchella","lila korallgomba",,,,,
"Ramicola centunculus",,,,,,
"Ramicola haustellaris",,,,,,
"Ramicola reducta",,,,,,
"Resupinatus trichotis","pihés terülőlaskagomba","fekete laskagomba","pihés terülőlaska",,,
"Rhizopogon roseolus","rózsaszínes istrángospöfeteg","rózsaszínes istrángos-álpöfeteg","vöröses istrángos-álpöfeteg","vöröses istrángospöfeteg",,
"Rhodocybe fallax",,,,,,
"Rhodocybe gemina",,,,,,
"Rhodocybe nitellina",,,,,,
"Rhodocybe popinalis",,,,,,
"Rhodotus palmatus",,,,,,
"Rickenella fibula","narancsos mohakígyógomba","sárga mohakígyógomba",,,,
"Rickenella setipes",,,,,,
"Ripartites helomorphus",,,,,,
"Ripartites metrodii",,,,,,
"Ripartites tricholoma","borostás nemezesgomba","borostás álcölöpgomba","borostás szöszösgomba","foltos nemezesgomba",,
"Rozites caperatus",,,,,,
"Russula acrifolia","csípőslemezű galambgomba",,,,,
"Russula adusta","sötétedő galambgomba",,,,,
"Russula aeruginea","fűzöld galambgomba",,,,,
"Russula albonigra","színváltó galambgomba",,,,,
"Russula alnetorum",,,,,,
"Russula alutacea","ízletes galambgomba",,,,,
"Russula amarissima","epeízű galambgomba",,,,,
"Russula amoena","változékony galambgomba",,,,,
"Russula amoenicolor","csinos galambgomba","zöldeslila galambgomba",,,,
"Russula amoenolens","sajtszagú galambgomba",,,,,
"Russula anatina","acélkékes galambgomba","gyöngyszürke galambgomba",,,,
"Russula anthracina","rózsáslemezű galambgomba","kormoshúsú galambgomba",,,,
"Russula aquosa","almaillatú galambgomba",,,,,
"Russula atropurpurea",,,,,,
"Russula atrorubens","feketéspiros galambgomba",,,,,
"Russula aurantiaca",,,,,,
"Russula aurea","aranyos galambgomba",,,,,
"Russula basifurcata",,,,,,
"Russula borealis",,,,,,
"Russula brunneoviolacea","bíborlilás galambgomba",,,,,
"Russula carminipes",,,,,,
"Russula carpini","gyertyán-galambgomba",,,,,
"Russula cessans","késői galambgomba","barnásközepű galambgomba",,,,
"Russula chloroides","kékeslemezű galambgomba","keskenylemezű galambgomba",,,,
"Russula citrina",,,,,,
"Russula citrinochlora",,,,,,
"Russula claroflava",,,,,,
"Russula coerulea",,,,,,
"Russula cuprea",,,,,,
"Russula cutefracta",,,,,,
"Russula cyanoxantha","kékhátú galambgomba","galambica",,,,
"Russula decipiens","csalóka galambgomba",,,,,
"Russula decolorans","tarkahúsú galambgomba",,,,,
"Russula delica","földtoló galambgomba","földtúró galambgomba",,,,
"Russula densifolia","feketedő galambgomba","piruló galambgomba",,,,
"Russula elaeodes","olajzöldes galambgomba",,,,,
"Russula elegans",,,,,,
"Russula emetica","hánytató galambgomba",,,,,
"Russula emeticella",,,,,,
"Russula emeticicolor",,,,,,
"Russula faginea","bükkös galambgomba",,,,,
"Russula farinipes","korpástönkű galambgomba",,,,,
"Russula fellea","fakó galambgomba","epeízű galambgomba",,,,
"Russula firmula","csípős galambgomba","ibolyaszínű galambgomba",,,,
"Russula foetens","büdös galambgomba",,,,,
"Russula fontqueri","rézvörös galambgomba",,,,,
"Russula fragilis","törékeny galambgomba",,,,,
"Russula fragrantissima",,,,,,
"Russula fuscorubroides",,,,,,
"Russula galochroa","gyöngyszürke galambgomba","fakó galambgomba",,,,
"Russula gracillima","kecses galambgomba",,,,,
"Russula grata","szagos galambgomba","mandulaillatú galambgomba",,,,
"Russula graveolens","halszagú galambgomba","erősszagú galambgomba",,,,
"Russula grisea","szürkészöld galambgomba",,,,,
"Russula heterophylla","dióízű galambgomba","simahátú galambgomba",,,,
"Russula illota","piszkos galambgomba","pontozottélű galambgomba",,,,
"Russula incarnata",,,,,,
"Russula insignis","sárgatövű galambgomba","szürkésbarna galambgomba",,,,
"Russula integra","barnásvörös galambgomba","veres galambgomba",,,,
"Russula ionochlora","papagáj-galambgomba","lilászöld galambgomba",,,,
"Russula laccata","fűzlápi galambgomba",,,,,
"Russula lilacea",,,,,,
"Russula lundellii",,,,,,
"Russula lutea",,,,,,
"Russula luteotacta","sárguló galambgomba",,,,,
"Russula maculata","foltos galambgomba",,,,,
"Russula mairei","bükkfa-galambgomba",,,,,
"Russula medullata","acélszürke galambgomba",,,,,
"Russula melliolens","mézszagú galambgomba",,,,,
"Russula minutula",,,,,,
"Russula mustelina","sárgásbarna galambgomba",,,,,
"Russula nauseosa","többszínű galambgomba",,,,,
"Russula nigricans","szenes galambgomba",,,,,
"Russula nitida","fényes galambgomba",,,,,
"Russula ochroleuca","fakósárga galambgomba","sárga galambgomba",,,,
"Russula odorata","illatos galambgomba",,,,,
"Russula olivacea","vöröstönkű galambgomba","olajbarna galambgomba",,,,
"Russula olivascens",,,,,,
"Russula pallidospora",,,,,,
"Russula paludosa","lápi galambgomba",,,,,
"Russula parazurea","deres galambgomba","kékes galambgomba","kékeszöld galambgomba",,,
"Russula pectinata","fésűs galambgomba",,,,,
"Russula pectinatoides",,,,,,
"Russula pelargonia",,,,,,
"Russula persicina","rózsásvörös galambgomba",,,,,
"Russula pseudointegra","keserű galambgomba",,,,,
"Russula puellaris","sárgulótönkű galambgomba",,,,,
"Russula puellula","lánykagalambgomba",,,,,
"Russula pulchella","halványuló galambgomba",,,,,
"Russula purpurata","sötétpiros galambgomba",,,,,
"Russula queletii","lucfenyő-galambgomba",,,,,
"Russula raoultii","halványsárga galambgomba",,,,,
"Russula rhodopoda","lángvöröstönkű galambgomba",,,,,
"Russula risigallina","cifra galambgomba",,,,,
"Russula romellii","sárgalemezű galambgomba","sárgahasú galambgomba",,,,
"Russula rosea",,,,,,
"Russula roseipes","rózsástönkű galambgomba",,,,,
"Russula rutila",,,,,,
"Russula sanguinaria","vérvörös galambgomba",,,,,
"Russula sardonia","citromlemezű galambgomba","izzadó galambgomba",,,,
"Russula seperina","gyászos galambgomba",,,,,
"Russula sericatula",,,,,,
"Russula solaris","élénksárga galambgomba",,,,,
"Russula sororia","barna galambgomba",,,,,
"Russula stenotricha",,,,,,
"Russula subfoetens",,,,,,
"Russula sublevispora",,,,,,
"Russula subterfurcata",,,,,,
"Russula torulosa","fenyő-galambgomb",,,,,
"Russula turci","jodoformszagú galambgomba",,,,,
"Russula velenovskyi","téglavörös galambgomba",,,,,
"Russula versicolor","sokszínű galambgomba",,,,,
"Russula vesca","ráncos galambgomba","ráncostönkű galambgomba",,,,
"Russula veternosa","húsrózsás galambgomba","rózsapiros galambgomba",,,,
"Russula vinosa","szürkülő galambgomba","borvörös galambgomba",,,,
"Russula vinosobrunnea","borbarna galambgomba",,,,,
"Russula vinosopurpurea","borvörös galambgomba",,,,,
"Russula violacea",,,,,,
"Russula violeipes","ibolyástönkű galambgomba",,,,,
"Russula virescens","varashátú galambgomba","varas galambgomba",,,,
"Russula viscida","bőrsárgatönkű galambgomba",,,,,
"Russula xerampelina","barnulóhúsú galambgomba",,,,,
"Sarcodon imbricatus","cserepes gereben",,,,,
"Sarcodon scabrosus","korpás gereben",,,,,
"Sarcoscypha austriaca","osztrák csészegomba",,,,,
"Sarcoscypha coccinea","piros csészegomba",,,,,
"Sarcosphaera coronaria","tulipán-csészegomba","lila tulipángomba",,,,
"Sarcosphaera crassa",,,,,,
"Schizophyllum commune","hasadtlemezű gomba",,,,,
"Schizopora flavipora","sárgapórusú kéreggomba","bibircses kéregtapló",,,,
"Schizopora paradoxa","változékony kéreggomba",,,,,
"Scleroderma areolatum","leopárdáltrifla","pettyes áltrifla",,,,
"Scleroderma bovista","fakó áltrifla",,,,,
"Scleroderma citrinum","rőt áltrifla","erdei áltrifla",,,,
"Scleroderma meridionale","déli áltrifla",,,,,
"Scleroderma verrucosum","nyeles áltrifla",,,,,
"Scutellinia scutellata","piros sörtéscsészegomba","sörtéscsészegomba",,,,
"Scutiger confluens",,,,,,
"Scutiger cristatus",,,,,,
"Scutiger ovinus",,,,,,
"Scutiger pescaprae","barnahátú zsemlegomba","kecskeláb zsemlegomba",,,,
"Scytinostroma portentosum",,,,,,
"Sebacina incrustans","terjengő bevonatgomba",,,,,
"Septobasidium fuscoviolaceum",,,,,,
"Sepultaria arenosa",,,,,,
"Sepultaria sumneriana",,,,,,
"Sericeomyces serenus",,,,,,
"Sericeomyces sericatellus",,,,,,
"Sericeomyces sericatus",,,,,,
"Skeletocutis nivea","szegett likacsosgomba",,,,,
"Sowerbyella radiculata","gyökeres fülesgomba",,,,,
"Sowerbyella unicolor",,,,,,
"Sparassis crispa","fodros káposztagomba",,,,,
"Spathularia flava",,,,,,
"Spongipellis pachyodon","fogas likacsosgomba",,,,,
"Spongipellis spumeus","lombfa-likacsosgomba","büdös likacsosgomba",,,,
"Spongiporus caesius",,,,,,
"Spongiporus fragilis",,,,,,
"Spongiporus stypticus",,,,,,
"Spongiporus subcaesius",,,,,,
"Squamanita schreieri","sárga pikkelyesgalóca",,,,,
"Steccherinum ochraceum","szöszös tányérosgereben",,,,,
"Steccherinum subcrinale",,,,,,
"Stereum gausapatum",,,,,,
"Stereum hirsutum","borostás réteggomba",,,,,
"Stereum insignitum",,,,,,
"Stereum rugosum","évelő réteggomba",,,,,
"Stereum sanguinolentum","vörösödő réteggomba",,,,,
"Stereum subtomentosum","bársonyos réteggomba","molyhos réteggomba",,,,
"Strobilomyces strobilaceus","pikkelyes tinóru",,,,,
"Strobilurus esculentus","lucos tobozfülőke","luc tobozfülőke",,,,
"Strobilurus stephanocystis","enyhe tobozfülőke","bordás tobozfülőke","gyakori tobozfülőke",,,
"Strobilurus tenacellus","keserű tobozfülőke",,,,,
"Stropharia aeruginosa","zöld harmatgomba",,,,,
"Stropharia albocyanea",,,,,,
"Stropharia albonitens","fehér harmatgomba",,,,,
"Stropharia caerulea","zöldeskék harmatgomba",,,,,
"Stropharia coronilla","sárga harmatgomba",,,,,
"Stropharia inuncta","szürke harmatgomba",,,,,
"Stropharia luteonitens",,,,,,
"Stropharia melasperma","feketéslemezű harmatgomba",,,,,
"Stropharia rugosoannulata","óriás harmatgomba",,,,,
"Stropharia semiglobata",,,,,,
"Stropharia squamosa",,,,,,
"Suillus amabilis",,,,,,
"Suillus bovinus",,,,,,
"Suillus fluryi","rózsástövű fenyőtinóru",,,,,
"Suillus granulatus",,,,,,
"Suillus grevillei","szemcsésnyelű fenyőtinóru","fenyőaljagomba","fenyővargánya",,,
"Suillus luteus","barna gyűrűstinóru","barna vajgomba","barnagyűrűs fenyőtinóru",,,
"Suillus placidus","elefántcsont-fenyőtinóru",,,,,
"Suillus tridentinus","rozsdavörös gyűrűstinóru","rozsdavörös fenyőtinóru",,,,
"Suillus variegatus","tarka tinóru","tarka fenyőtinóru",,,,
"Suillus viscidus","szürke gyűrűstinóru","ragadós gyűrűstinóru","szürke tinóru","szürkegyűrűs fenyőtinóru",,
"Tarzetta catinus","sárga kehelygomba","sárga kehely-csészegomba",,,,
"Tarzetta cupularis","fogacskás kehelygomba",,,,,
"Terfezia terfezioides","ragadós dücskőgomba",,,,,
"Thelephora anthocephala","virágos szemölcsösgomba",,,,,
"Thelephora caryophyllea","tölcséres szemölcsösgomba",,,,,
"Thelephora mollissima","csoportos szemölcsösgomba",,,,,
"Thelephora palmata","büdös szemölcsösgomba","büdös bőrkorallgomba",,,,
"Thelephora terrestris","talajlakó szemölcsösgomba","áttelelő szemölcsösgomba",,,,
"Trametes cervina",,,,,,
"Trametes gibbosa","púpos egyrétűtapló",,,,,
"Trametes hirsuta","borostás egyrétűtapló",,,,,
"Trametes multicolor","öves egyrétűtapló",,,,,
"Trametes suaveolens","ánizstapló",,,,,
"Trametes versicolor","lepketapló",,,,,
"Tremella encephala","fenyő-rezgőgomba",,,,,
"Tremella foliacea","fodros rezgőgomba",,,,,
"Tremella mesenterica","aranyos rezgőgomba",,,,,
"Trichaptum abietinum","fenyő-egyrétűtapló","ibolyás egyrétűtapló",,,,
"Trichaptum biforme","lilaszegélyű egyrétűtapló","bükk-egyrétűtapló","lila egyrétűtapló",,,
"Trichaptum hollii","fogas egyrétűtapló",,,,,
"Tricholoma acerbum","keserű pereszke",,,,,
"Tricholoma aestuans","epeízű pereszke","csípős pereszke",,,,
"Tricholoma album","fehér pereszke",,,,,
"Tricholoma argyraceum","kúposkalapú pereszke","sárguló pereszke",,,,
"Tricholoma atrosquamosum",,,,,,
"Tricholoma aurantium","narancsvörös pereszke",,,,,
"Tricholoma basirubens","bíbortövű pereszke","bíbortönkű pereszke",,,,
"Tricholoma bresadolanum","pikkelyestönkű pereszke","feketeszegélyű pereszke",,,,
"Tricholoma cingulatum","öves pereszke","fűzfa pereszke",,,,
"Tricholoma columbetta","galambpereszke",,,,,
"Tricholoma eosinobasis",,,,,,
"Tricholoma equestre","sárgászöld pereszke",,,,,
"Tricholoma flavovirens",,,,,,
"Tricholoma focale","galléros pereszke","nyakörves pereszke",,,,
"Tricholoma fracticum",,,,,,
"Tricholoma fucatum","olajbarna pereszke","többszínű pereszke",,,,
"Tricholoma fulvum","sárgalemezű pereszke",,,,,
"Tricholoma goniospermum",,,,,,
"Tricholoma imbricatum","aprópikkelyű pereszke",,,,,
"Tricholoma inodermeum","rőt pereszke",,,,,
"Tricholoma josserandii","homoki pereszke",,,,,
"Tricholoma lascivum","émelyítő pereszke","bőrsárga pereszke",,,,
"Tricholoma myomyces",,,,,,
"Tricholoma nodulosporum",,,,,,
"Tricholoma orirubens","rózsáslemezű pereszke",,,,,
"Tricholoma pardalotum",,,,,,
"Tricholoma pessundatum","foltos pereszke",,,,,
"Tricholoma populinum","nyárfa-pereszke",,,,,
"Tricholoma portentosum","szürke pereszke",,,,,
"Tricholoma psammopus","vörösfenyő-pereszke",,,,,
"Tricholoma resplendens",,,,,,
"Tricholoma saponaceum","szappanszagú pereszke",,,,,
"Tricholoma sciodes","bükki pereszke",,,,,
"Tricholoma sejunctum","cirmoskalapú pereszke","zöldessárga pereszke",,,,
"Tricholoma stans",,,,,,
"Tricholoma stiparophyllum","szagos pereszke","fehér pereszke",,,,
"Tricholoma striatum",,,,,,
"Tricholoma sudum",,,,,,
"Tricholoma sulphurescens","okkerfoltos pereszke",,,,,
"Tricholoma sulphureum","büdös pereszke",,,,,
"Tricholoma terreum","fenyő-pereszke","rákízű pereszke",,,,
"Tricholoma triste",,,,,,
"Tricholoma ustale","szenesedő pereszke",,,,,
"Tricholoma ustaloides","gesztenyebarna pereszke",,,,,
"Tricholoma vaccinum","szakállas pereszke",,,,,
"Tricholoma virgatum","csípős pereszke",,,,,
"Tricholomopsis decora","olajsárga fapereszke","olajsárgás fapereszke",,,,
"Tricholomopsis rutilans","bársonyos fapereszke",,,,,
"Tubaria confragosa","galléros szemétgomba","nagy tölcsérszemétgomba",,,,
"Tubaria conspersa","pelyhes szemétgomba","pelyhes tölcsérszemétgomba",,,,
"Tubaria dispersa","sárgalemezű szemétgomba","sárgalemezű tölcsérszemétgomba",,,,
"Tubaria furfuracea","gyakori szemétgomba","gyakori tölcsérszemétgomba",,,,
"Tubaria hiemalis","téli szemétgomba",,,,,
"Tubaria minutalis","parányi szemétgomba","parányi tölcsérszemétgomba",,,,
"Tubaria pallidospora",,,,,,
"Tubaria trigonophylla",,,,,,
"Tuber aestivum","nyári szarvasgomba","burgundi szarvasgomba","európai fekete szarvasgomba","földi kenyér","nyári gímgomba","nyári trifola"
"Tuber excavatum","üreges szarvasgomba",,,,,
"Tuber magnatum","isztriai szarvasgomba","hagymaszagú főúri gímgomba","mágnás szarvasgomba","piemonti szarvagomba","piroshúsú szarvasgomba","piros husu trifola"
"Tuber mesentericum","puha szarvasgomba",,,,,
"Tuber rapaeodorum","mustárszagú szarvasgomba",,,,,
"Tuber rufum","rőt szarvasgomba",,,,,
"Tulasnella violea","kénsárga szarvasgomba",,,,,
"Tulostoma brumale","öves nyelespöfeteg",,,,,
"Tulostoma kotlabae","világostönkű nyelespöfeteg",,,,,
"Tulostoma melanocyclum","sötétsávos nyelespöfeteg",,,,,
"Tulostoma squamosum","szálkás nyelespöfeteg",,,,,
"Tylopilus felleus","epeízű tinóru",,,,,
"Typhula phacorrhiza","nyurga fonalgomba",,,,,
"Tyromyces chioneus","foszlós likacsosgomba",,,,,
"Vascellum pratense",,,,,,
"Volvariella bombycina","óriás bocskorosgomba",,,,,
"Volvariella caesiotincta","acélszürke bocskorosgomba",,,,,
"Volvariella gloiocephala",,,,,,
"Volvariella hypopithys","pelyhestönkű bocskorosgomba","fenyőtűbocskorosgomba",,,,
"Volvariella krizii",,,,,,
"Volvariella media","középnagy bocskorosgomba",,,,,
"Volvariella murinella","egérszürke bocskorosgomba",,,,,
"Volvariella pusilla","apró bocskorosgomba","barnabocskorú bocskorosgomba",,,,
"Volvariella surrecta","élősködő bocskorosgomba","élősdi bocskorosgomba",,,,
"Volvariella volvacea","csíkos bocskorosgomba","termesztett bocskorosgomba",,,,
"Vuilleminia comedens","tölgy-kéreghántógomba",,,,,
"Xerocomus armeniacus",,,,,,
"Xerocomus badius",,,,,,
"Xerocomus chrysenteron","arany tinóru","arany nemezestinóru",,,,
"Xerocomus moravicus",,,,,,
"Xerocomus pruinatus","hamvas tinóru","pompás nemezestinóru",,,,
"Xerocomus rubellus",,,,,,
"Xerocomus spadiceus","rozsdabarna tinóru","recéstönkű nemezestinóru","rozsdabarna nemezestinóru",,,
"Xerocomus subtomentosus","molyhos tinóru","molyhos nemezestinóru",,,,
"Xerocomus truncatus",,,,,,
"Xerula caussei",,,,,,
"Xerula pudens","bársonyos gyökeresfülőke","hosszúszárú fülőke",,,,
"Xerula radicata","kupacsagancsgomba",,,,,
"Xylaria hypoxylon","szarvas agancsgomba","szarvasagancsgomba",,,,
"Xylaria longipes","nyeles agancsgomba",,,,,
"Xylaria pedunculata",,,,,,
"Xylaria polymorpha","bunkós agancsgomba",,,,,
