fajnev,status,elfogadott_nev
Aeshna affinis,elfogadott,
Aeshna cyanea,elfogadott,
Aeshna isoceles,szinonim,
Aeshna mixta,elfogadott,
Anaciaeschna isosceles,szinonim,
Anax ephippiger,elfogadott,
Anax imperator,elfogadott,
Anax parthenope,elfogadott,
Brachytron pratense,elfogadott,
Calopteryx splendens,elfogadott,
Calopteryx virgo,elfogadott,
Chalcolestes parvidens,elfogadott,
Chalcolestes viridis,elfogadott,
Chalcolestes viridis/parvidens,elfogadott,
Coenagrion ornatum,elfogadott,
Coenagrion puella,elfogadott,
Coenagrion pulchellum,elfogadott,
Coenagrion pulchellum interruptum,szinonim,
Coenagrion scitulum,elfogadott,
Cordulegaster bidentata,elfogadott,
Cordulegaster heros,elfogadott,
Cordulia aenea,elfogadott,
Crocothemis erythraea,elfogadott,
Enallagma cyathigerum,elfogadott,
Epitheca bimaculata,elfogadott,
Erythromma najas,elfogadott,
Erythromma viridulum,elfogadott,
Erythromma lindenii,elfogadott,
Gomphus flavipes,elfogadott,
Gomphus vulgatissimus,elfogadott,
Hemianax ephippiger,szinonim,Anax ephippiger
Ischnura elegans,elfogadott,
Ischnura elegans pontica,szinonim,
Ischnura pumilio,elfogadott,
Lestes barbarus,elfogadott,
Lestes dryas,elfogadott,
Lestes macrostigma,elfogadott,
Lestes sponsa,elfogadott,
Lestes virens,elfogadott,
Lestes virens vestalis,szinonim,
Lestes viridis,szinonim,Chalcolestes viridis
Leucorrhinia caudalis,elfogadott,
Leucorrhinia pectoralis,elfogadott,
Libellula depressa,elfogadott,
Libellula fulva,elfogadott,
Libellula quadrimaculata,elfogadott,
Onychogomphus forcipatus,elfogadott,
Ophiogomphus cecilia,elfogadott,
Orthetrum albistylum,elfogadott,
Orthetrum brunneum,elfogadott,
Orthetrum cancellatum,elfogadott,
Orthetrum coerulescens,elfogadott,
Platycnemis pennipes,elfogadott,
Pyrrhosoma nymphula,elfogadott,
Pyrrhosoma nymphula interposita,szinonim,
Somatochlora flavomaculata,elfogadott,
Somatochlora metallica,elfogadott,
Stylurus flavipes,szinonim,Gomphus flavipes
Sympecma fusca,elfogadott,
Sympetrum danae,elfogadott,
Sympetrum depressiusculum,elfogadott,
Sympetrum flaveolum,elfogadott,
Sympetrum fonscolombii,elfogadott,
Sympetrum meridionale,elfogadott,
Sympetrum sanguineum,elfogadott,
Sympetrum striolatum,elfogadott,
Sympetrum vulgatum,elfogadott,
